measures/default.csv

#Digilent WaveForms Oscilloscope Acquisition
#Device Name: Discovery2
#Serial Number: SN:210321AE09E4
#Date Time: 2020-06-12 19:22:39.671
#Sample rate: 1.5873e+06Hz
#Samples: 8192
#Trigger: Source: Channel 1 Type: Edge Condition: Rising Level: -550 mV Hyst.: Auto HoldOff: 0 s
#Channel 1: Range: 500 mV/div Offset: 0 V Attenuation: 1 X Zero: 992.763664 mV

Time (s),Channel 1 (V)
0.1971740047904192,0.03434691731139556
0.1971746347904192,0.03569970253684318
0.1971752647904192,0.03569970253684318
0.1971758947904192,0.03569970253684764
0.1971765247904192,0.03603789884321786
0.1971771547904192,0.03671429145593563
0.1971777847904192,0.03671429145594255
0.1971784147904192,0.0370524877622924
0.1971790447904192,0.03705248776229964
0.1971796747904192,0.0380670766813748
0.1971803047904192,0.03806707668139186
0.1971809347904192,0.03806707668139186
0.1971815647904192,0.03806707668139186
0.1971821947904192,0.03840527298775363
0.1971828247904192,0.03908166560048071
0.1971834547904192,0.03874346929412101
0.1971840847904192,0.03874346929412009
0.1971847147904192,0.03941986190684955
0.1971853447904192,0.04009625451957793
0.1971859747904192,0.04043445082594055
0.1971866047904192,0.04043445082594055
0.1971872347904192,0.04043445082594793
0.1971878647904192,0.04111084343867324
0.1971884947904192,0.04144903974503816
0.1971891247904192,0.04178723605140931
0.1971897547904192,0.04246362866411809
0.1971903847904192,0.04212543235776824
0.1971910147904192,0.04246362866411855
0.1971916447904192,0.0421254323577667
0.1971922747904192,0.04246362866412009
0.1971929047904192,0.04280182497048508
0.1971935347904192,0.04314002127685001
0.1971941647904192,0.043478217583215
0.1971947947904192,0.04381641388957977
0.1971954247904192,0.04415461019594454
0.1971960547904192,0.04415461019594547
0.1971966847904192,0.04516919911503892
0.1971973147904192,0.04584559172776869
0.1971979447904192,0.04652198434049415
0.1971985747904192,0.04652198434049707
0.1971992047904192,0.04686018064685077
0.1971998347904192,0.04618378803413938
0.1972004647904192,0.04686018064686891
0.1972010947904192,0.04753657325959868
0.1972017247904192,0.04821296587231461
0.1972023547904192,0.04821296587231461
0.1972029847904192,0.04821296587231461
0.1972036147904192,0.04753657325959776
0.1972042447904192,0.04855116217866384
0.1972048747904192,0.04855116217867861
0.1972055047904192,0.04888935848503961
0.1972061347904192,0.04922755479140437
0.1972067647904192,0.04990394740413168
0.1972073947904192,0.05024214371049814
0.1972080247904192,0.05091853632322699
0.1972086547904192,0.0512567326295909
0.1972092847904192,0.05091853632322729
0.1972099147904192,0.05091853632323375
0.1972105447904192,0.05193312524231952
0.1972111747904192,0.05193312524232337
0.1972118047904192,0.05227132154869298
0.1972124347904192,0.05294771416141714
0.1972130647904192,0.05328591046777598
0.1972136947904192,0.05328591046777598
0.1972143247904192,0.05328591046777598
0.1972149547904192,0.05328591046777598
0.1972155847904192,0.05362410677413429
0.1972162147904192,0.05362410677413998
0.1972168447904192,0.05463869569322021
0.1972174747904192,0.05497689199959321
0.1972181047904192,0.05531508830595797
0.1972187347904192,0.05531508830596044
0.1972193647904192,0.05565328461232374
0.1972199947904192,0.05599148091868851
0.1972206247904192,0.05666787353141689
0.1972212547904192,0.05666787353141966
0.1972218847904192,0.05734426614414742
0.1972225147904192,0.05768246245051219
0.1972231447904192,0.05802065875687312
0.1972237747904192,0.05802065875687312
0.1972244047904192,0.05802065875687851
0.1972250347904192,0.0583588550632435
0.1972256647904192,0.05869705136960827
0.1972262947904192,0.05903524767595834
0.1972269247904192,0.05903524767596557
0.1972275547904192,0.0597116402886825
0.1972281847904192,0.06038803290141227
0.1972288147904192,0.06140262182050204
0.1972294447904192,0.06106442551415326
0.1972300747904192,0.06106442551415003
0.1972307047904192,0.06106442551415003
0.1972313347904192,0.06106442551415003
0.1972319647904192,0.06140262182051388
0.1972325947904192,0.06207901443324411
0.1972332247904192,0.06309360335233449
0.1972338547904192,0.06309360335233219
0.1972344847904192,0.06275540704597664
0.1972351147904192,0.06343179965870256
0.1972357447904192,0.06376999596507195
0.1972363747904192,0.06444638857780172
0.1972370047904192,0.06512278119052532
0.1972376347904192,0.06546097749688318
0.1972382647904192,0.06546097749688318
0.1972388947904192,0.06613737010959879
0.1972395247904192,0.06681376272232856
0.1972401547904192,0.06715195902869886
0.1972407847904192,0.06715195902870363
0.1972414147904192,0.06681376272234286
0.1972420447904192,0.06749015533506271
0.1972426747904192,0.06715195902870533
0.1972433047904192,0.06715195902870363
0.1972439347904192,0.06816654794779541
0.1972445647904192,0.06918113686688963
0.1972451947904192,0.06985752947961786
0.1972458247904192,0.07019572578598032
0.1972464547904192,0.0701957257859834
0.1972470847904192,0.07053392209234455
0.1972477147904192,0.07053392209235378
0.1972483447904192,0.07121031470507816
0.1972489747904192,0.07154851101143063
0.1972496047904192,0.0712103147050797
0.1972502347904192,0.0715485110114297
0.1972508647904192,0.07188670731779448
0.1972514947904192,0.07222490362415947
0.1972521247904192,0.07256309993052423
0.1972527547904192,0.07256309993052901
0.1972533847904192,0.07290129623689
0.1972540147904192,0.07290129623689323
0.1972546447904192,0.07290129623689323
0.1972552747904192,0.07290129623689323
0.1972559047904192,0.07357768884962124
0.1972565347904192,0.07459227776871523
0.1972571647904192,0.07526867038144323
0.1972577947904192,0.07560686668780592
0.1972584247904192,0.075606866687809
0.1972590547904192,0.07594506299417376
0.1972596847904192,0.07628325930053875
0.1972603147904192,0.07662145560690892
0.1972609447904192,0.07729784821962637
0.1972615747904192,0.07729784821962637
0.1972622047904192,0.07729784821962637
0.1972628347904192,0.07729784821962637
0.1972634647904192,0.07797424083234331
0.1972640947904192,0.07797424083235438
0.1972647247904192,0.07898882975143484
0.1972653547904192,0.07865063344508584
0.1972659847904192,0.07932702605780591
0.1972666147904192,0.07932702605781083
0.1972672447904192,0.07966522236417407
0.1972678747904192,0.08000341867053906
0.1972685047904192,0.08067981128326805
0.1972691347904192,0.0810180075896359
0.1972697647904192,0.08203259650872122
0.1972703947904192,0.0816944002023626
0.1972710247904192,0.08203259650873121
0.1972716547904192,0.08270898912145636
0.1972722847904192,0.08304718542781575
0.1972729147904192,0.08304718542782205
0.1972735447904192,0.08338538173417998
0.1972741747904192,0.08338538173417998
0.1972748047904192,0.08372357804053768
0.1972754347904192,0.08372357804054398
0.1972760647904192,0.08372357804054398
0.1972766947904192,0.08372357804054398
0.1972773247904192,0.08406177434690497
0.1972779547904192,0.0847381669596316
0.1972785847904192,0.08575275587872383
0.1972792147904192,0.08642914849145512
0.1972798447904192,0.08710554110418489
0.1972804747904192,0.08812013002327636
0.1972811047904192,0.08778193371691312
0.1972817347904192,0.08778193371691542
0.1972823647904192,0.08812013002327404
0.1972829947904192,0.08778193371691696
0.1972836247904192,0.08812013002329096
0.1972842547904192,0.08913471894237489
0.1972848847904192,0.08947291524873988
0.1972855147904192,0.0898111115550905
0.1972861447904192,0.08947291524874065
0.1972867747904192,0.08947291524873358
0.1972874047904192,0.08913471894237489
0.1972880347904192,0.09014930786144749
0.1972886647904192,0.09082570047418181
0.1972892947904192,0.09150209308691189
0.1972899247904192,0.09251668200600334
0.1972905547904192,0.0921784856996478
0.1972911847904192,0.0925166820060095
0.1972918147904192,0.09251668200601026
0.1972924447904192,0.09319307461873926
0.1972930747904192,0.09353127092510403
0.1972937047904192,0.09386946723146211
0.1972943347904192,0.09319307461873849
0.1972949647904192,0.09319307461874234
0.1972955947904192,0.09353127092511203
0.1972962247904192,0.09420766353783072
0.1972968547904192,0.09420766353783702
0.1972974847904192,0.09454585984420202
0.1972981147904192,0.09488405615055187
0.1972987447904192,0.09589864506963226
0.1972993747904192,0.09589864506965118
0.1973000047904192,0.09657503768236987
0.1973006347904192,0.09657503768237941
0.1973012647904192,0.09725143029510148
0.1973018947904192,0.09758962660146933
0.1973025247904192,0.09758962660147164
0.1973031547904192,0.0979278229078351
0.1973037847904192,0.09826601921419986
0.1973044147904192,0.09894241182692733
0.1973050447904192,0.09860421552056695
0.1973056747904192,0.09928060813329209
0.1973063047904192,0.09928060813329533
0.1973069347904192,0.09961880443965232
0.1973075647904192,0.09928060813330163
0.1973081947904192,0.09995700074602586
0.1973088247904192,0.1002951970523969
0.1973094547904192,0.1009715896651125
0.1973100847904192,0.1009715896651125
0.1973107147904192,0.1019861785841859
0.1973113447904192,0.1019861785842048
0.1973119747904192,0.1026625711969238
0.1973126047904192,0.102662571196933
0.1973132347904192,0.1030007675032939
0.1973138647904192,0.1033389638096589
0.1973144947904192,0.1036771601160237
0.1973151247904192,0.1036771601160252
0.1973157547904192,0.1050299453414817
0.1973163847904192,0.104691749035119
0.1973170147904192,0.1053681416478442
0.1973176447904192,0.1050299453414792
0.1973182747904192,0.1046917490351239
0.1973189047904192,0.1053681416478537
0.1973195347904192,0.1060445342605835
0.1973201647904192,0.1067209268733077
0.1973207947904192,0.1070591231796724
0.1973214247904192,0.1073973194860375
0.1973220547904192,0.1077355157923873
0.1973226847904192,0.1073973194860367
0.1973233147904192,0.1073973194860304
0.1973239447904192,0.1084119084051088
0.1973245747904192,0.1090883010178429
0.1973252047904192,0.1090883010178506
0.1973258347904192,0.1094264973242125
0.1973264647904192,0.1090883010178521
0.1973270947904192,0.1094264973242141
0.1973277247904192,0.1097646936305788
0.1973283547904192,0.1101028899369438
0.1973289847904192,0.1104410862433088
0.1973296147904192,0.1107792825496711
0.1973302447904192,0.1107792825496711
0.1973308747904192,0.1107792825496711
0.1973315047904192,0.1107792825496758
0.1973321347904192,0.1111174788560464
0.1973327647904192,0.1117938714687761
0.1973333947904192,0.1124702640815057
0.1973340247904192,0.1131466566942059
0.1973346547904192,0.1134848530005778
0.1973352847904192,0.1138230493069426
0.1973359147904192,0.114499441919667
0.1973365447904192,0.1144994419196762
0.1973371747904192,0.1151758345323983
0.1973378047904192,0.1151758345324044
0.1973384347904192,0.1155140308387669
0.1973390647904192,0.1155140308387684
0.1973396947904192,0.1158522271451324
0.1973403247904192,0.1161904234514976
0.1973409547904192,0.1165286197578624
0.1973415847904192,0.1168668160642296
0.1973422147904192,0.1175432086769561
0.1973428447904192,0.1178814049833211
0.1973434747904192,0.1182196012896859
0.1973441047904192,0.1185577975960507
0.1973447347904192,0.1188959939024093
0.1973453647904192,0.1188959939024164
0.1973459947904192,0.1192341902087664
0.1973466247904192,0.1195723865151314
0.1973472547904192,0.1199105828214962
0.1973478847904192,0.1195723865151422
0.1973485147904192,0.1195723865151376
0.1973491447904192,0.1192341902087764
0.1973497747904192,0.1188959939024117
0.1973504047904192,0.119910582821497
0.1973510347904192,0.121263368046955
0.1973516647904192,0.1219397606596863
0.1973522947904192,0.1226161532724143
0.1973529247904192,0.1226161532724176
0.1973535547904192,0.1232925458851449
0.1973541847904192,0.1236307421915097
0.1973548147904192,0.1239689384978627
0.1973554447904192,0.1232925458851473
0.1973560747904192,0.1236307421915176
0.1973567047904192,0.1243071348042347
0.1973573347904192,0.1243071348042275
0.1973579647904192,0.1239689384978776
0.1973585947904192,0.1236307421915126
0.1973592247904192,0.1239689384978653
0.1973598547904192,0.1249835274169491
0.1973604847904192,0.1259981163360436
0.1973611147904192,0.1266745089487772
0.1973617447904192,0.127350901561507
0.1973623747904192,0.1270127052551489
0.1973630047904192,0.1276890978678744
0.1973636347904192,0.1280272941742398
0.1973642647904192,0.1283654904806048
0.1973648947904192,0.1287036867869645
0.1973655247904192,0.1280272941742396
0.1973661547904192,0.1280272941742364
0.1973667847904192,0.1276890978678836
0.1973674147904192,0.1283654904806086
0.1973680447904192,0.1287036867869679
0.1973686747904192,0.1287036867869743
0.1973693047904192,0.1290418830933393
0.1973699347904192,0.1293800793996892
0.1973705647904192,0.1297182757060539
0.1973711947904192,0.1303946683187776
0.1973718247904192,0.1314092572378667
0.1973724547904192,0.1320856498506011
0.1973730847904192,0.1320856498506088
0.1973737147904192,0.1327620424633327
0.1973743447904192,0.1334384350760625
0.1973749747904192,0.1334384350760652
0.1973756047904192,0.133100238769701
0.1973762347904192,0.133100238769701
0.1973768647904192,0.1331002387697044
0.1973774947904192,0.1337766313824317
0.1973781247904192,0.1341148276887999
0.1973787547904192,0.1347912203015215
0.1973793847904192,0.134791220301531
0.1973800147904192,0.1354676129142554
0.1973806447904192,0.1358058092206137
0.1973812747904192,0.1358058092206282
0.1973819047904192,0.1364822018333281
0.1973825347904192,0.1368203981397
0.1973831647904192,0.1368203981397061
0.1973837947904192,0.1374967907524249
0.1973844247904192,0.1381731833651547
0.1973850547904192,0.1371585944460789
0.1973856847904192,0.1371585944460701
0.1973863147904192,0.1374967907524328
0.1973869447904192,0.1374967907524342
0.1973875747904192,0.1385113796715268
0.1973882047904192,0.1388495759778934
0.1973888347904192,0.1398641648969845
0.1973894647904192,0.1402023612033493
0.1973900947904192,0.1405405575097111
0.1973907247904192,0.1405405575097071
0.1973913547904192,0.1402023612033567
0.1973919847904192,0.1408787538160751
0.1973926147904192,0.1408787538160815
0.1973932447904192,0.1412169501224465
0.1973938747904192,0.1415551464287964
0.1973945047904192,0.1418933427351614
0.1973951347904192,0.1415551464288087
0.1973957647904192,0.1418933427351629
0.1973963947904192,0.1429079316542487
0.1973970247904192,0.1435843242669819
0.1973976547904192,0.1435843242669878
0.1973982847904192,0.1435843242669878
0.1973989147904192,0.1445989131860784
0.1973995447904192,0.1449371094924444
0.1974001747904192,0.1452753057988073
0.1974008047904192,0.1449371094924459
0.1974014347904192,0.1452753057988082
0.1974020647904192,0.145275305798815
0.1974026947904192,0.1459516984115406
0.1974033247904192,0.1462898947179105
0.1974039547904192,0.14696628733064
0.1974045847904192,0.1476426799433634
0.1974052147904192,0.1479808762497209
0.1974058447904192,0.1479808762497209
0.1974064747904192,0.1476426799433631
0.1974071047904192,0.1483190725560743
0.1974077347904192,0.1483190725560851
0.1974083647904192,0.1486572688624454
0.1974089947904192,0.1486572688624491
0.1974096247904192,0.1486572688624491
0.1974102547904192,0.148995465168812
0.1974108847904192,0.1496718577815404
0.1974115147904192,0.1500100540879057
0.1974121447904192,0.1503482503942677
0.1974127747904192,0.1496718577815467
0.1974134047904192,0.150686446700639
0.1974140347904192,0.1513628393133652
0.1974146647904192,0.1517010356197302
0.1974152947904192,0.1520392319260851
0.1974159247904192,0.1517010356197374
0.1974165547904192,0.1523774282324607
0.1974171847904192,0.1527156245388255
0.1974178147904192,0.1530538208451754
0.1974184447904192,0.1533920171515403
0.1974190747904192,0.1537302134579053
0.1974197047904192,0.1537302134579105
0.1974203347904192,0.1544066060706313
0.1974209647904192,0.1544066060706387
0.1974215947904192,0.1544066060706387
0.1974222247904192,0.1544066060706387
0.1974228547904192,0.1547448023770021
0.1974234847904192,0.1557593912960951
0.1974241147904192,0.1560975876024583
0.1974247447904192,0.1557593912960986
0.1974253747904192,0.1564357839088258
0.1974260047904192,0.1567739802151942
0.1974266347904192,0.1574503728279156
0.1974272647904192,0.1574503728279205
0.1974278947904192,0.1577885691342796
0.1974285247904192,0.157788569134299
0.1974291547904192,0.1588031580533574
0.1974297847904192,0.1581267654406572
0.1974304147904192,0.1588031580533599
0.1974310447904192,0.1588031580533719
0.1974316747904192,0.1591413543597314
0.1974323047904192,0.1594795506660964
0.1974329347904192,0.1598177469724612
0.1974335647904192,0.1598177469724641
0.1974341947904192,0.161170532197915
0.1974348247904192,0.1611705321979205
0.1974354547904192,0.1618469248106488
0.1974360847904192,0.1618469248106509
0.1974367147904192,0.1625233174233786
0.1974373447904192,0.162861513729741
0.1974379747904192,0.1628615137297444
0.1974386047904192,0.163199710036105
0.1974392347904192,0.163199710036105
0.1974398647904192,0.163199710036105
0.1974404947904192,0.1631997100361115
0.1974411247904192,0.1635379063424762
0.1974417547904192,0.1638761026488265
0.1974423847904192,0.1638761026488332
0.1974430147904192,0.164552495261551
0.1974436447904192,0.1645524952615615
0.1974442747904192,0.1652288878742823
0.1974449047904192,0.1655670841806508
0.1974455347904192,0.1662434767933776
0.1974461647904192,0.16725806571247
0.1974467947904192,0.1665816730997471
0.1974474247904192,0.1665816730997462
0.1974480547904192,0.1669198694061121
0.1974486847904192,0.16759626201884
0.1974493147904192,0.1679344583251998
0.1974499447904192,0.1675962620188381
0.1974505747904192,0.1675962620188464
0.1974512047904192,0.1682726546315664
0.1974518347904192,0.1682726546315778
0.1974524647904192,0.1689490472442946
0.1974530947904192,0.168949047244302
0.1974537247904192,0.1692872435506518
0.1974543547904192,0.1689490472443006
0.1974549847904192,0.1699636361633712
0.1974556147904192,0.1703018324697464
0.1974562447904192,0.1703018324697508
0.1974568747904192,0.1709782250824732
0.1974575047904192,0.171654617695203
0.1974581347904192,0.1716546176952073
0.1974587647904192,0.1719928140015708
0.1974593947904192,0.1719928140015716
0.1974600247904192,0.1723310103079355
0.1974606547904192,0.1723310103079373
0.1974612847904192,0.1726692066143021
0.1974619147904192,0.1730074029206671
0.1974625447904192,0.1733455992270319
0.1974631747904192,0.1736837955333917
0.1974638047904192,0.1736837955334031
0.1974644347904192,0.1743601881461332
0.1974650647904192,0.1750365807588482
0.1974656947904192,0.1750365807588482
0.1974663247904192,0.1750365807588482
0.1974669547904192,0.175374777065207
0.1974675847904192,0.1760511696779315
0.1974682147904192,0.1767275622906613
0.1974688447904192,0.1770657585970297
0.1974694747904192,0.1770657585970327
0.1974701047904192,0.1774039549033957
0.1974707347904192,0.1774039549033969
0.1974713647904192,0.1777421512097615
0.1974719947904192,0.1784185438224891
0.1974726247904192,0.1784185438224909
0.1974732547904192,0.1787567401288557
0.1974738847904192,0.1790949364352171
0.1974745147904192,0.1790949364352171
0.1974751447904192,0.179094936435222
0.1974757747904192,0.179433132741593
0.1974764047904192,0.1801095253543294
0.1974770347904192,0.1811241142733792
0.1974776647904192,0.1804477216606871
0.1974782947904192,0.1811241142733898
0.1974789247904192,0.180785917967043
0.1974795547904192,0.1814623105797569
0.1974801847904192,0.1821387031924867
0.1974808147904192,0.1824768994988553
0.1974814447904192,0.1828150958052203
0.1974820747904192,0.183153292111585
0.1974827047904192,0.1828150958052227
0.1974833347904192,0.1834914884179502
0.1974839647904192,0.1831532921115884
0.1974845947904192,0.1838296847243163
0.1974852247904192,0.1841678810306837
0.1974858547904192,0.1848442736434033
0.1974864847904192,0.1845060773370469
0.1974871147904192,0.1848442736434067
0.1974877447904192,0.1848442736434126
0.1974883747904192,0.1851824699497776
0.1974890047904192,0.1855206662561497
0.1974896347904192,0.1861970588688496
0.1974902647904192,0.1865352551752212
0.1974908947904192,0.1865352551752272
0.1974915247904192,0.1865352551752272
0.1974921547904192,0.1865352551752272
0.1974927847904192,0.1868734514815884
0.1974934147904192,0.1875498440943154
0.1974940447904192,0.1872116477879566
0.1974946747904192,0.1875498440943189
0.1974953047904192,0.1872116477879563
0.1974959347904192,0.1882262367070487
