measures/default2.csv

#Digilent WaveForms Oscilloscope Acquisition
#Device Name: Discovery2
#Serial Number: SN:210321AE09E4
#Date Time: 2020-06-12 19:23:43.694
#Sample rate: 4e+06Hz
#Samples: 8192
#Trigger: Source: Channel 1 Type: Edge Condition: Rising Level: -550 mV Hyst.: Auto HoldOff: 0 s
#Channel 1: Range: 500 mV/div Offset: 0 V Attenuation: 1 X Zero: 992.763664 mV

Time (s),Channel 1 (V)
0.3974095724637681,0.3437965376345288
0.3974098224637681,0.3437965376345288
0.3974100724637681,0.3437965376345288
0.3974103224637681,0.3444729302472239
0.3974105724637681,0.3441347339408878
0.3974108224637681,0.3437965376345514
0.3974110724637681,0.3437965376345288
0.3974113224637681,0.3437965376345288
0.3974115724637681,0.3434583413281957
0.3974118224637681,0.3441347339408604
0.3974120724637681,0.3434583413281879
0.3974123224637681,0.3437965376345288
0.3974125724637681,0.3437965376345288
0.3974128224637681,0.3437965376345288
0.3974130724637681,0.3437965376345835
0.3974133224637681,0.3444729302472561
0.3974135724637681,0.344472930247257
0.3974138224637681,0.3448111265535829
0.3974140724637681,0.3441347339409105
0.3974143224637681,0.344134733940893
0.3974145724637681,0.3437965376345394
0.3974148224637681,0.3441347339408758
0.3974150724637681,0.3437965376345589
0.3974153224637681,0.3441347339408907
0.3974155724637681,0.3437965376345543
0.3974158224637681,0.344472930247257
0.3974160724637681,0.344472930247257
0.3974163224637681,0.344811126553587
0.3974165724637681,0.3451493228599852
0.3974168224637681,0.3451493228599852
0.3974170724637681,0.3451493228600835
0.3974173224637681,0.3461639117790775
0.3974175724637681,0.3461639117790775
0.3974178224637681,0.3465021080853683
0.3974180724637681,0.3454875191663594
0.3974183224637681,0.346163911779015
0.3974185724637681,0.3458257154727452
0.3974188224637681,0.346502108085418
0.3974190724637681,0.3454875191664558
0.3974193224637681,0.346502108085434
0.3974195724637681,0.3461639117790976
0.3974198224637681,0.3465021080854146
0.3974200724637681,0.3461639117790781
0.3974203224637681,0.3461639117790775
0.3974205724637681,0.3461639117790962
0.3974208224637681,0.3465021080854326
0.3974210724637681,0.3461639117791144
0.3974213224637681,0.3458257154727237
0.3974215724637681,0.3461639117790601
0.3974218224637681,0.3465021080854417
0.3974220724637681,0.3465021080854457
0.3974223224637681,0.347178500698118
0.3974225724637681,0.346163911779099
0.3974228224637681,0.3465021080854354
0.3974230724637681,0.3461639117791116
0.3974233224637681,0.3465021080854155
0.3974235724637681,0.3458257154727428
0.3974238224637681,0.3458257154726807
0.3974240724637681,0.345487519166354
0.3974243224637681,0.3458257154726901
0.3974245724637681,0.3458257154727615
0.3974248224637681,0.3465021080854343
0.3974250724637681,0.3458257154727763
0.3974253224637681,0.3465021080854259
0.3974255724637681,0.3461639117790895
0.3974258224637681,0.3468403043918761
0.3974260724637681,0.3475166970045339
0.3974263224637681,0.3475166970045339
0.3974265724637681,0.3475166970045608
0.3974268224637681,0.347854893310897
0.3974270724637681,0.3478548933108979
0.3974273224637681,0.3481930896172435
0.3974275724637681,0.3478548933109073
0.3974278224637681,0.3478548933108979
0.3974280724637681,0.3471785006982002
0.3974283224637681,0.3481930896172089
0.3974285724637681,0.3481930896172619
0.3974288224637681,0.3481930896172636
0.3974290724637681,0.3485312859236002
0.3974293224637681,0.3488694822299477
0.3974295724637681,0.3481930896172751
0.3974298224637681,0.3488694822299213
0.3974300724637681,0.3488694822299901
0.3974303224637681,0.3488694822299901
0.3974305724637681,0.3485312859235938
0.3974308224637681,0.3481930896172575
0.3974310724637681,0.3478548933109213
0.3974313224637681,0.3478548933108979
0.3974315724637681,0.3478548933108979
0.3974318224637681,0.3478548933108979
0.3974320724637681,0.3478548933109135
0.3974323224637681,0.3481930896172496
0.3974325724637681,0.3485312859235911
0.3974328224637681,0.3481930896172619
0.3974330724637681,0.3481930896172619
0.3974333224637681,0.3488694822299636
0.3974335724637681,0.3485312859236274
0.3974338224637681,0.3488694822299611
0.3974340724637681,0.3488694822299901
0.3974343224637681,0.3488694822299901
0.3974345724637681,0.3495458748426437
0.3974348224637681,0.3498840711490627
0.3974350724637681,0.3492076785363901
0.3974353224637681,0.3492076785363248
0.3974355724637681,0.3488694822299932
0.3974358224637681,0.3495458748426657
0.3974360724637681,0.3488694822299901
0.3974363224637681,0.3488694822299901
0.3974365724637681,0.3485312859236609
0.3974368224637681,0.3488694822300027
0.3974370724637681,0.3492076785363389
0.3974373224637681,0.3498840711490504
0.3974375724637681,0.3495458748427184
0.3974378224637681,0.3495458748427184
0.3974380724637681,0.3495458748427421
0.3974383224637681,0.3498840711490782
0.3974385724637681,0.3498840711490824
0.3974388224637681,0.3502222674554161
0.3974390724637681,0.3495458748427436
0.3974393224637681,0.3502222674554466
0.3974395724637681,0.3502222674554535
0.3974398224637681,0.3505604637617897
0.3974400724637681,0.3498840711491087
0.3974403224637681,0.3502222674554452
0.3974405724637681,0.3498840711491116
0.3974408224637681,0.3502222674554286
0.3974410724637681,0.3498840711490922
0.3974413224637681,0.3502222674554089
0.3974415724637681,0.3498840711491017
0.3974418224637681,0.3505604637617743
0.3974420724637681,0.3505604637618687
0.3974423224637681,0.3512368563745376
0.3974425724637681,0.3508986600682014
0.3974428224637681,0.3512368563745388
0.3974430724637681,0.3512368563745388
0.3974433224637681,0.3512368563745388
0.3974435724637681,0.3512368563745388
0.3974438224637681,0.3512368563745388
0.3974440724637681,0.351236856374507
0.3974443224637681,0.3508986600681748
0.3974445724637681,0.3508986600681748
0.3974448224637681,0.3508986600681515
0.3974450724637681,0.350560463761815
0.3974453224637681,0.3508986600681425
0.3974455724637681,0.351236856374569
0.3974458224637681,0.3519132489872415
0.3974460724637681,0.3519132489873015
0.3974463224637681,0.3522514452936245
0.3974465724637681,0.3519132489872883
0.3974468224637681,0.3522514452936049
0.3974470724637681,0.3519132489872687
0.3974473224637681,0.3519132489872671
0.3974475724637681,0.3519132489873201
0.3974478224637681,0.3529278379063288
0.3974480724637681,0.3529278379063965
0.3974483224637681,0.3532660342127233
0.3974485724637681,0.3532660342127233
0.3974488224637681,0.3529278379063305
0.3974490724637681,0.3525896415999951
0.3974493224637681,0.3525896415999951
0.3974495724637681,0.352251445293672
0.3974498224637681,0.3529278379063445
0.3974500724637681,0.3522514452937015
0.3974503224637681,0.3522514452936311
0.3974505724637681,0.3522514452936311
0.3974508224637681,0.3522514452936311
0.3974510724637681,0.3522514452936274
0.3974513224637681,0.3519132489872912
0.3974515724637681,0.3519132489872439
0.3974518224637681,0.3515750526809074
0.3974520724637681,0.3515750526809028
0.3974523224637681,0.3519132489872523
0.3974525724637681,0.3515750526809159
0.3974528224637681,0.3522514452935968
0.3974530724637681,0.3519132489872929
0.3974533224637681,0.3532660342126378
0.3974535724637681,0.3525896416000209
0.3974538224637681,0.3529278379063573
0.3974540724637681,0.3532660342126935
0.3974543224637681,0.3529278379063944
0.3974545724637681,0.3536042305190667
0.3974548224637681,0.3539424268254515
0.3974550724637681,0.3539424268254697
0.3974553224637681,0.3546188194381422
0.3974555724637681,0.3539424268254801
0.3974558224637681,0.354280623131815
0.3974560724637681,0.3539424268254786
0.3974563224637681,0.3546188194381999
0.3974565724637681,0.354957015744536
0.3974568224637681,0.3546188194382153
0.3974570724637681,0.3546188194381679
0.3974573224637681,0.3542806231318317
0.3974575724637681,0.3549570157445125
0.3974578224637681,0.3546188194381831
0.3974580724637681,0.3549570157445194
0.3974583224637681,0.3549570157444979
0.3974585724637681,0.3542806231318256
0.3974588224637681,0.3549570157444782
0.3974590724637681,0.3542806231318302
0.3974593224637681,0.3546188194381665
0.3974595724637681,0.3536042305190873
0.3974598224637681,0.353604230519075
0.3974600724637681,0.3529278379064026
0.3974603224637681,0.3536042305190618
0.3974605724637681,0.3532660342127255
0.3974608224637681,0.3532660342127233
0.3974610724637681,0.3536042305191045
0.3974613224637681,0.3539424268254409
0.3974615724637681,0.3542806231318157
0.3974618224637681,0.3542806231317979
0.3974620724637681,0.3536042305191252
0.3974623224637681,0.3542806231318157
0.3974625724637681,0.3542806231318162
0.3974628224637681,0.3546188194381524
0.3974630724637681,0.3549570157445637
0.3974633224637681,0.3552952120509001
0.3974635724637681,0.3556334083572363
0.3974638224637681,0.3563098009700117
0.3974640724637681,0.3566479972763479
0.3974643224637681,0.3566479972763642
0.3974645724637681,0.3566479972763642
0.3974648224637681,0.3566479972763642
0.3974650724637681,0.3559716046636134
0.3974653224637681,0.3556334083572772
0.3974655724637681,0.355633408357272
0.3974658224637681,0.3556334083572863
0.3974660724637681,0.3559716046636224
0.3974663224637681,0.3563098009699329
0.3974665724637681,0.3556334083572837
0.3974668224637681,0.3563098009699562
0.3974670724637681,0.3556334083572973
0.3974673224637681,0.3559716046636335
0.3974675724637681,0.3556334083573023
0.3974678224637681,0.355971604663636
0.3974680724637681,0.355971604663636
0.3974683224637681,0.3563098009699637
0.3974685724637681,0.3559716046636446
0.3974688224637681,0.356309800969981
0.3974690724637681,0.355971604663664
0.3974693224637681,0.3563098009700002
0.3974695724637681,0.3563098009700002
0.3974698224637681,0.3563098009700002
0.3974700724637681,0.3563098009700002
0.3974703224637681,0.3559716046636719
0.3974705724637681,0.3559716046636474
0.3974708224637681,0.3563098009699838
0.3974710724637681,0.3563098009700617
0.3974713224637681,0.3569861935827253
0.3974715724637681,0.3566479972763891
0.3974718224637681,0.3569861935827282
0.3974720724637681,0.3569861935827282
0.3974723224637681,0.3573243898890592
0.3974725724637681,0.3569861935827562
0.3974728224637681,0.3576625861954287
0.3974730724637681,0.35766258619549
0.3974733224637681,0.3580007825018149
0.3974735724637681,0.3576625861954786
0.3974738224637681,0.3576625861954564
0.3974740724637681,0.3576625861954564
0.3974743224637681,0.3576625861954564
0.3974745724637681,0.3576625861954564
0.3974748224637681,0.3576625861954564
0.3974750724637681,0.3573243898890563
0.3974753224637681,0.3569861935827116
0.3974755724637681,0.3563098009700393
0.3974758224637681,0.3566479972763642
0.3974760724637681,0.3566479972763642
0.3974763224637681,0.3573243898890368
0.3974765724637681,0.356986193582767
0.3974768224637681,0.3576625861954395
0.3974770724637681,0.3576625861954564
0.3974773224637681,0.3576625861954564
0.3974775724637681,0.3576625861954564
0.3974778224637681,0.3576625861954564
0.3974780724637681,0.3576625861954564
0.3974783224637681,0.3576625861954564
0.3974785724637681,0.3580007825018428
0.3974788224637681,0.3583389788081789
0.3974790724637681,0.3576625861955235
0.3974793224637681,0.3583389788081709
0.3974795724637681,0.3580007825018346
0.3974798224637681,0.3586771751145157
0.3974800724637681,0.35833897880819
0.3974803224637681,0.3586771751145265
0.3974805724637681,0.3586771751145738
0.3974808224637681,0.3590153714209099
0.3974810724637681,0.3586771751145796
0.3974813224637681,0.3583389788081847
0.3974815724637681,0.3583389788081847
0.3974818224637681,0.3583389788082206
0.3974820724637681,0.3586771751145652
0.3974823224637681,0.3593535677272375
0.3974825724637681,0.359015371420968
0.3974828224637681,0.3596917640336405
0.3974830724637681,0.3590153714209692
0.3974833224637681,0.3596917640336411
0.3974835724637681,0.3596917640336411
0.3974838224637681,0.3593535677273134
0.3974840724637681,0.3590153714209129
0.3974843224637681,0.3590153714209129
0.3974845724637681,0.3590153714209432
0.3974848224637681,0.3593535677272719
0.3974850724637681,0.3586771751145996
0.3974853224637681,0.3590153714208692
0.3974855724637681,0.3583389788081967
0.3974858224637681,0.3593535677271754
0.3974860724637681,0.359353567727304
0.3974863224637681,0.3600299603399765
0.3974865724637681,0.3593535677273098
0.3974868224637681,0.3596917640336411
0.3974870724637681,0.3596917640336411
0.3974873224637681,0.3596917640336165
0.3974875724637681,0.3593535677272801
0.3974878224637681,0.3593535677272769
0.3974880724637681,0.3593535677273092
0.3974883224637681,0.3600299603399817
0.3974885724637681,0.3600299603400051
0.3974888224637681,0.3600299603400051
0.3974890724637681,0.3600299603400051
0.3974893224637681,0.3603681566463691
0.3974895724637681,0.3603681566463691
0.3974898224637681,0.3610445492590407
0.3974900724637681,0.3603681566463691
0.3974903224637681,0.3603681566463691
0.3974905724637681,0.3603681566463691
0.3974908224637681,0.3607063529527227
0.3974910724637681,0.3603681566463863
0.3974913224637681,0.3603681566463391
0.3974915724637681,0.3600299603400094
0.3974918224637681,0.360706352952682
0.3974920724637681,0.3603681566463908
0.3974923224637681,0.3607063529527272
0.3974925724637681,0.3607063529527333
0.3974928224637681,0.3613827455654481
0.3974930724637681,0.3610445492591119
0.3974933224637681,0.3613827455654941
0.3974935724637681,0.3617209418718256
0.3974938224637681,0.3617209418718256
0.3974940724637681,0.3613827455654613
0.3974943224637681,0.3613827455654613
0.3974945724637681,0.3613827455654613
0.3974948224637681,0.3620591381781898
0.3974950724637681,0.3620591381781898
0.3974953224637681,0.3620591381781898
0.3974955724637681,0.3620591381781973
0.3974958224637681,0.3623973344845335
0.3974960724637681,0.3617209418717985
0.3974963224637681,0.3613827455654621
0.3974965724637681,0.3610445492591259
0.3974968224637681,0.3613827455654613
0.3974970724637681,0.3613827455654613
0.3974973224637681,0.3613827455654613
0.3974975724637681,0.3613827455654717
0.3974978224637681,0.361720941871808
0.3974980724637681,0.3623973344845538
0.3974983224637681,0.3623973344845538
0.3974985724637681,0.3623973344845538
0.3974988224637681,0.3623973344845752
0.3974990724637681,0.3627355307909114
0.3974993224637681,0.3623973344845881
0.3974995724637681,0.3617209418718514
0.3974998224637681,0.3623973344845243
0.3975000724637681,0.3613827455654938
0.3975003224637681,0.361720941871821
0.3975005724637681,0.3613827455654846
0.3975008224637681,0.3617209418718739
0.3975010724637681,0.3623973344845464
0.3975013224637681,0.3627355307908863
0.3975015724637681,0.3627355307909492
0.3975018224637681,0.3634119234036217
0.3975020724637681,0.363073727097282
0.3975023224637681,0.363073727097282
0.3975025724637681,0.363073727097282
0.3975028224637681,0.3630737270972553
0.3975030724637681,0.3627355307909189
0.3975033224637681,0.3627355307909178
0.3975035724637681,0.3627355307909362
0.3975038224637681,0.3630737270972726
0.3975040724637681,0.362735530790955
0.3975043224637681,0.3627355307909178
0.3975045724637681,0.3627355307909178
0.3975048224637681,0.363411923403587
0.3975050724637681,0.3627355307909178
0.3975053224637681,0.3627355307909178
0.3975055724637681,0.3620591381782109
0.3975058224637681,0.362397334484547
0.3975060724637681,0.3627355307908832
0.3975063224637681,0.3630737270972565
0.3975065724637681,0.3623973344845839
0.3975068224637681,0.3630737270972499
0.3975070724637681,0.3627355307909264
0.3975073224637681,0.3634119234035993
0.3975075724637681,0.363411923403646
0.3975078224637681,0.363411923403646
0.3975080724637681,0.3637501197099782
0.3975083224637681,0.36375011971001
0.3975085724637681,0.36375011971001
0.3975088224637681,0.3640883160163743
0.3975090724637681,0.3640883160163813
0.3975093224637681,0.3644265123227175
0.3975095724637681,0.36375011971001
0.3975098224637681,0.36375011971001
0.3975100724637681,0.3640883160163452
0.3975103224637681,0.3640883160163743
0.3975105724637681,0.3640883160163743
0.3975108224637681,0.3640883160164118
0.3975110724637681,0.3644265123227481
0.3975113224637681,0.3647647086290843
0.3975115724637681,0.3647647086291315
0.3975118224637681,0.3651029049354637
0.3975120724637681,0.3644265123227912
0.3975123224637681,0.3647647086290604
0.3975125724637681,0.3640883160163881
0.3975128224637681,0.3644265123227035
0.3975130724637681,0.3640883160163867
0.3975133224637681,0.3644265123227229
0.3975135724637681,0.3637501197099781
0.3975138224637681,0.3634119234036544
0.3975140724637681,0.3640883160163269
0.3975143224637681,0.3637501197100336
0.3975145724637681,0.3640883160163699
0.3975148224637681,0.3640883160163743
0.3975150724637681,0.3640883160163895
0.3975153224637681,0.3644265123227257
0.3975155724637681,0.3644265123228075
0.3975158224637681,0.3651029049354733
0.3975160724637681,0.3654411012418094
0.3975163224637681,0.3654411012418305
0.3975165724637681,0.3654411012418305
0.3975168224637681,0.3654411012418305
0.3975170724637681,0.3657792975481947
0.3975173224637681,0.3657792975481947
0.3975175724637681,0.3654411012418305
0.3975178224637681,0.3654411012418305
0.3975180724637681,0.3654411012418305
0.3975183224637681,0.3654411012418305
0.3975185724637681,0.3654411012418329
0.3975188224637681,0.3661174938545055
0.3975190724637681,0.3661174938545999
0.3975193224637681,0.3667938864672725
0.3975195724637681,0.366455690160958
0.3975198224637681,0.3664556901609106
0.3975200724637681,0.3661174938545743
0.3975203224637681,0.366117493854527
0.3975205724637681,0.3657792975481947
0.3975208224637681,0.3657792975481947
0.3975210724637681,0.3657792975482181
0.3975213224637681,0.3661174938545543
0.3975215724637681,0.3664556901608906
0.3975218224637681,0.3664556901609229
0.3975220724637681,0.3664556901609229
0.3975223224637681,0.3667938864672869
0.3975225724637681,0.3667938864672936
0.3975228224637681,0.3671320827736297
0.3975230724637681,0.3664556901609489
0.3975233224637681,0.3667938864672851
0.3975235724637681,0.3664556901609526
0.3975238224637681,0.3664556901609229
0.3975240724637681,0.3664556901609229
0.3975243224637681,0.3657792975481576
0.3975245724637681,0.3654411012418397
0.3975248224637681,0.3657792975481761
0.3975250724637681,0.3657792975482235
0.3975253224637681,0.3661174938545597
0.3975255724637681,0.366455690160896
0.3975258224637681,0.3661174938545587
0.3975260724637681,0.3661174938545587
0.3975263224637681,0.3667938864672162
0.3975265724637681,0.3664556901609349
0.3975268224637681,0.3667938864672711
0.3975270724637681,0.3667938864673183
0.3975273224637681,0.3671320827736509
0.3975275724637681,0.3671320827736509
0.3975278224637681,0.3674702790799921
0.3975280724637681,0.3671320827736557
0.3975283224637681,0.3671320827736509
0.3975285724637681,0.3667938864673308
0.3975288224637681,0.36780847538634
0.3975290724637681,0.3674702790800152
0.3975293224637681,0.3674702790800088
0.3975295724637681,0.3671320827736725
0.3975298224637681,0.367470279080041
0.3975300724637681,0.3678084753863772
0.3975303224637681,0.3684848679990477
0.3975305724637681,0.36848486799909
0.3975308224637681,0.3681466716927536
0.3975310724637681,0.367808475386453
0.3975313224637681,0.3684848679991074
0.3975315724637681,0.3684848679991074
0.3975318224637681,0.3681466716927147
0.3975320724637681,0.3678084753863792
0.3975323224637681,0.3678084753863792
0.3975325724637681,0.3678084753864195
0.3975328224637681,0.368484867999092
0.3975330724637681,0.3681466716927787
0.3975333224637681,0.3681466716927432
0.3975335724637681,0.3681466716927432
0.3975338224637681,0.3684848679991386
0.3975340724637681,0.368823064305468
0.3975343224637681,0.3684848679991319
0.3975345724637681,0.3691612606118129
0.3975348224637681,0.3688230643054765
0.3975350724637681,0.3688230643054714
0.3975353224637681,0.3681466716927432
0.3975355724637681,0.3681466716927432
0.3975358224637681,0.368146671692777
0.3975360724637681,0.3684848679991014
0.3975363224637681,0.368146671692765
0.3975365724637681,0.3688230643054969
0.3975368224637681,0.3691612606118333
0.3975370724637681,0.3688230643055015
0.3975373224637681,0.3694994569181996
0.3975375724637681,0.3694994569181996
0.3975378224637681,0.3698376532245273
0.3975380724637681,0.3694994569181996
0.3975383224637681,0.3694994569181996
0.3975385724637681,0.3688230643054995
0.3975388224637681,0.3691612606118352
