sample rate determination/beginning.csv

#Digilent WaveForms Oscilloscope Acquisition
#Device Name: Discovery2
#Serial Number: SN:210321AA234B
#Date Time: 2020-06-18 10:30:48.728
#Sample rate: 4e+06Hz
#Samples: 8192
#Trigger: Source: Channel 1 Type: Edge Condition: Rising Level: 2.6 V Hyst.: Auto HoldOff: 0 s
#Channel 1: Range: 1 V/div Offset: 0 V Attenuation: 1 X

Time (s),Channel 1 (V)
-0.0003441484374999999,0.8067239006855359
-0.0003438984374999999,0.8030388631545611
-0.0003436484375000001,0.7993538256235911
-0.0003433984375000001,0.8030388631545611
-0.0003431484375,0.7993538256235895
-0.0003428984375,0.7993538256235895
-0.0003426484375,0.8030388631545627
-0.0003423984374999999,0.7993538256235895
-0.0003421484374999999,0.7993538256235928
-0.0003418984375000001,0.8067239006855326
-0.0003416484375,0.8067239006855359
-0.0003413984375,0.8104089382165091
-0.0003411484375,0.8104089382165091
-0.0003408984374999999,0.8104089382165091
-0.0003406484374999999,0.8104089382165091
-0.0003403984375000001,0.8104089382165091
-0.0003401484375000001,0.8140939757474807
-0.0003398984375,0.8067239006855359
-0.0003396484375,0.8067239006855359
-0.0003393984375,0.8030388631545627
-0.0003391484374999999,0.7993538256235911
-0.0003388984374999999,0.8030388631545627
-0.0003386484375000001,0.8030388631545627
-0.0003383984375,0.8030388631545627
-0.0003381484375,0.8067239006855359
-0.0003378984375,0.8067239006855359
-0.0003376484374999999,0.8067239006855359
-0.0003373984374999999,0.8030388631545644
-0.0003371484374999999,0.8067239006855359
-0.0003368984375000001,0.8067239006855359
-0.0003366484375,0.8067239006855359
-0.0003363984375,0.8104089382165091
-0.0003361484375,0.8067239006855359
-0.0003358984374999999,0.8030388631545627
-0.0003356484374999999,0.8030388631545594
-0.0003353984375000001,0.7956687880926196
-0.0003351484375000001,0.7551333752519296
-0.0003348984375,0.751448337720938
-0.0003346484375,0.7440782626589916
-0.0003343984375,0.7403932251280184
-0.0003341484374999999,0.7403932251280168
-0.0003338984374999999,0.7367081875970468
-0.0003336484375000001,0.7403932251280168
-0.0003333984375,0.7403932251280184
-0.0003331484375,0.7403932251280184
-0.0003328984375,0.7403932251280184
-0.0003326484374999999,0.7440782626589916
-0.0003323984374999999,0.7403932251280184
-0.0003321484375000001,0.7403932251280184
-0.0003318984375000001,0.7367081875970468
-0.0003316484375,0.7367081875970451
-0.0003313984375,0.7403932251280184
-0.0003311484375,0.7403932251280184
-0.0003308984374999999,0.7440782626589899
-0.0003306484374999999,0.7403932251280168
-0.0003303984375000001,0.7367081875970468
-0.0003301484375,0.7367081875970451
-0.0003298984375,0.7367081875970451
-0.0003296484375,0.733023150066072
-0.0003293984374999999,0.7367081875970451
-0.0003291484374999999,0.7403932251280151
-0.0003288984375000001,0.7330231500660753
-0.0003286484375000001,0.7367081875970435
-0.0003283984375,0.7367081875970451
-0.0003281484375,0.7440782626589916
-0.0003278984375,0.7403932251280184
-0.0003276484374999999,0.7440782626589916
-0.0003273984374999999,0.7440782626589916
-0.0003271484375000001,0.7440782626589916
-0.0003268984375,0.7440782626589916
-0.0003266484375,0.7403932251280184
-0.0003263984375,0.7403932251280184
-0.0003261484374999999,0.7403932251280184
-0.0003258984374999999,0.7403932251280184
-0.0003256484375000001,0.7403932251280184
-0.0003253984375000001,0.7403932251280184
-0.0003251484375,0.7440782626589916
-0.0003248984375,0.7293381125350988
-0.0003246484375,0.69617277475634
-0.0003243984374999999,0.6924877372253652
-0.0003241484374999999,0.6888026996943903
-0.0003238984375000001,0.6814326246324506
-0.0003236484375,0.6814326246324472
-0.0003233984375,0.6777475871014741
-0.0003231484375,0.6777475871014741
-0.0003228984374999999,0.6814326246324472
-0.0003226484374999999,0.6703775120395293
-0.0003223984375000001,0.6740625495704992
-0.0003221484375000001,0.6777475871014724
-0.0003218984375,0.6777475871014741
-0.0003216484375,0.6777475871014741
-0.0003213984375,0.6814326246324472
-0.0003211484374999999,0.6777475871014724
-0.0003208984374999999,0.6740625495705025
-0.0003206484375000001,0.6777475871014724
-0.0003203984375,0.6740625495705008
-0.0003201484375,0.6740625495705008
-0.0003198984375,0.6740625495705008
-0.0003196484374999999,0.6777475871014741
-0.0003193984374999999,0.6814326246324489
-0.0003191484375000001,0.6851176621634187
-0.0003188984375000001,0.6740625495705058
-0.0003186484375,0.6777475871014741
-0.0003183984375,0.6777475871014741
-0.0003181484375,0.6777475871014741
-0.0003178984374999999,0.6740625495705025
-0.0003176484374999999,0.6777475871014741
-0.0003173984375000001,0.6777475871014741
-0.0003171484375,0.6740625495705008
-0.0003168984375,0.6814326246324472
-0.0003166484375,0.6740625495705008
-0.0003163984374999999,0.6777475871014741
-0.0003161484374999999,0.6777475871014741
-0.0003158984375000001,0.6777475871014741
-0.0003156484375000001,0.6814326246324456
-0.0003153984375,0.6777475871014741
-0.0003151484375,0.6777475871014741
-0.0003148984375,0.6777475871014741
-0.0003146484374999999,0.6814326246324338
-0.0003143984374999999,0.6519523243846533
-0.0003141484375000001,0.633527136729804
-0.0003138984375,0.6298420991988242
-0.0003136484375,0.6187869866059029
-0.0003133984375,0.6151019490749298
-0.0003131484375,0.6151019490749298
-0.0003128984374999999,0.6114169115439548
-0.0003126484374999999,0.6077318740129867
-0.0003123984375000001,0.6151019490749264
-0.0003121484375,0.6151019490749298
-0.0003118984375,0.6151019490749298
-0.0003116484375,0.6187869866059029
-0.0003113984374999999,0.6151019490749298
-0.0003111484374999999,0.6151019490749298
-0.0003108984375000001,0.6151019490749298
-0.0003106484375000001,0.6187869866059013
-0.0003103984375,0.6151019490749298
-0.0003101484375,0.6224720241368761
-0.0003098984375,0.6151019490749298
-0.0003096484374999999,0.6114169115439548
-0.0003093984374999999,0.6077318740129833
-0.0003091484375000001,0.6077318740129833
-0.0003088984375,0.6114169115439565
-0.0003086484375,0.6077318740129833
-0.0003083984375,0.6077318740129833
-0.0003081484374999999,0.6077318740129833
-0.0003078984374999999,0.6114169115439582
-0.0003076484375000001,0.6151019490749281
-0.0003073984375000001,0.6151019490749298
-0.0003071484375,0.6187869866059029
-0.0003068984375,0.6151019490749298
-0.0003066484375,0.6151019490749298
-0.0003063984374999999,0.6114169115439582
-0.0003061484374999999,0.6151019490749264
-0.0003058984375000001,0.6077318740129867
-0.0003056484375,0.6077318740129833
-0.0003053984375,0.6077318740129833
-0.0003051484375,0.6114169115439565
-0.0003048984374999999,0.6114169115439565
-0.0003046484374999999,0.6114169115439565
-0.0003043984375000001,0.6114169115439565
-0.0003041484375000001,0.6040468364820135
-0.0003038984375,0.5671964611722782
-0.0003036484375,0.563511423641305
-0.0003033984375,0.563511423641305
-0.0003031484374999999,0.563511423641305
-0.0003028984374999999,0.5635114236413017
-0.0003026484375000001,0.5561413485793619
-0.0003023984375,0.5561413485793586
-0.0003021484375,0.5561413485793586
-0.0003018984375,0.5524563110483854
-0.0003016484374999999,0.5524563110483854
-0.0003013984374999999,0.5524563110483838
-0.0003011484375000001,0.5487712735174138
-0.0003008984375000001,0.5524563110483838
-0.0003006484375,0.5487712735174122
-0.0003003984375,0.5487712735174122
-0.0003001484375,0.5524563110483854
-0.0002998984374999999,0.5561413485793586
-0.0002996484374999999,0.5561413485793603
-0.0002993984375000001,0.5598263861103301
-0.0002991484375,0.5524563110483854
-0.0002988984375,0.5561413485793586
-0.0002986484375,0.5487712735174122
-0.0002983984374999999,0.5561413485793586
-0.0002981484374999999,0.5487712735174155
-0.0002978984375000001,0.5561413485793553
-0.0002976484375000001,0.5524563110483871
-0.0002973984375,0.5524563110483854
-0.0002971484375,0.5487712735174122
-0.0002968984375,0.5524563110483854
-0.0002966484375,0.5487712735174122
-0.0002963984375,0.5561413485793586
-0.0002961484375,0.5561413485793586
-0.0002958984374999999,0.5598263861103318
-0.0002956484375,0.563511423641305
-0.0002953984375,0.5561413485793586
-0.0002951484374999999,0.5561413485793586
-0.0002948984375,0.5524563110483854
-0.0002946484375,0.5561413485793586
-0.0002943984375,0.5561413485793586
-0.0002941484375,0.5561413485793586
-0.0002938984375,0.5561413485793586
-0.0002936484375,0.5487712735174122
-0.0002933984375,0.5156059357386534
-0.0002931484375,0.5082358606767071
-0.0002928984375,0.5082358606767071
-0.0002926484374999999,0.5045508231457339
-0.0002923984375,0.5045508231457339
-0.0002921484375,0.5008657856147607
-0.0002918984374999999,0.4971807480837875
-0.0002916484375,0.5008657856147607
-0.0002913984375,0.4971807480837875
-0.0002911484375,0.4934957105528143
-0.0002908984375,0.4934957105528143
-0.0002906484375,0.4934957105528143
-0.0002903984375,0.4971807480837875
-0.0002901484375,0.4934957105528143
-0.0002898984375,0.4934957105528143
-0.0002896484375,0.4934957105528143
-0.0002893984374999999,0.5008657856147607
-0.0002891484375,0.5008657856147607
-0.0002888984375,0.5045508231457339
-0.0002886484375,0.5082358606767071
-0.0002883984375,0.5045508231457339
-0.0002881484375,0.5045508231457339
-0.0002878984375,0.5008657856147607
-0.0002876484375,0.4971807480837875
-0.0002873984375,0.5008657856147607
-0.0002871484375,0.5008657856147607
-0.0002868984375,0.5045508231457339
-0.0002866484375,0.5045508231457339
-0.0002863984375,0.4971807480837875
-0.0002861484374999999,0.5045508231457339
-0.0002858984375,0.5082358606767071
-0.0002856484375,0.5119208982076803
-0.0002853984375,0.5045508231457339
-0.0002851484375,0.5045508231457339
-0.0002848984375,0.5045508231457339
-0.0002846484375,0.5008657856147607
-0.0002843984375,0.5045508231457339
-0.0002841484375,0.5008657856147607
-0.0002838984375,0.5008657856147607
-0.0002836484374999999,0.5008657856147607
-0.0002833984375,0.4971807480837875
-0.0002831484375,0.4750705228979483
-0.0002828984374999999,0.4603303727740555
-0.0002826484375,0.4492752601811359
-0.0002823984375,0.4455902226501627
-0.0002821484375,0.4419051851191895
-0.0002818984375,0.4382201475882164
-0.0002816484375,0.4455902226501627
-0.0002813984375,0.4419051851191895
-0.0002811484375,0.4455902226501627
-0.0002808984375,0.4419051851191895
-0.0002806484375,0.4419051851191895
-0.0002803984374999999,0.4455902226501627
-0.0002801484375,0.4455902226501627
-0.0002798984375,0.4492752601811359
-0.0002796484374999999,0.4492752601811359
-0.0002793984375,0.4492752601811359
-0.0002791484375,0.4455902226501627
-0.0002788984375,0.4419051851191895
-0.0002786484375,0.4455902226501627
-0.0002783984375,0.4455902226501627
-0.0002781484375,0.4455902226501627
-0.0002778984375,0.4492752601811359
-0.0002776484375,0.4419051851191895
-0.0002773984375,0.4455902226501627
-0.0002771484374999999,0.4345351100572432
-0.0002768984375,0.4419051851191895
-0.0002766484375,0.4382201475882164
-0.0002763984375,0.4419051851191895
-0.0002761484375,0.4492752601811359
-0.0002758984375,0.4455902226501627
-0.0002756484375,0.4455902226501627
-0.0002753984375,0.4455902226501627
-0.0002751484375,0.4529602977121091
-0.0002748984375,0.4455902226501627
-0.0002746484375,0.4455902226501627
-0.0002743984375,0.4455902226501627
-0.0002741484375,0.4455902226501627
-0.0002738984374999999,0.4455902226501627
-0.0002736484375,0.4419051851191895
-0.0002733984375,0.4382201475882164
-0.0002731484375,0.4419051851191895
-0.0002728984375,0.4382201475882164
-0.0002726484375,0.4087398473404308
-0.0002723984375,0.4050548098094576
-0.0002721484375,0.393999697216538
-0.0002718984375,0.3976847347475112
-0.0002716484375,0.393999697216538
-0.0002713984374999999,0.393999697216538
-0.0002711484375,0.3903146596855648
-0.0002708984375,0.393999697216538
-0.0002706484374999999,0.393999697216538
-0.0002703984375,0.3903146596855648
-0.0002701484375,0.3866296221545916
-0.0002698984375,0.3903146596855648
-0.0002696484375,0.3903146596855648
-0.0002693984375,0.393999697216538
-0.0002691484375,0.393999697216538
-0.0002688984375,0.3866296221545916
-0.0002686484375,0.3866296221545916
-0.0002683984375,0.3903146596855648
-0.0002681484374999999,0.3903146596855648
-0.0002678984375,0.3903146596855648
-0.0002676484375,0.3903146596855648
-0.0002673984374999999,0.3866296221545916
-0.0002671484375,0.3829445846236184
-0.0002668984375,0.3903146596855648
-0.0002666484375,0.3903146596855648
-0.0002663984375,0.3903146596855648
-0.0002661484375,0.393999697216538
-0.0002658984375,0.393999697216538
-0.0002656484375,0.393999697216538
-0.0002653984375,0.3976847347475112
-0.0002651484375,0.3903146596855648
-0.0002648984374999999,0.393999697216538
-0.0002646484375,0.393999697216538
-0.0002643984375,0.393999697216538
-0.0002641484375,0.393999697216538
-0.0002638984375,0.393999697216538
-0.0002636484375,0.3976847347475112
-0.0002633984375,0.3903146596855648
-0.0002631484375,0.393999697216538
-0.0002628984375,0.3903146596855648
-0.0002626484375,0.393999697216538
-0.0002623984375,0.3866296221545916
-0.0002621484375,0.357149321906806
-0.0002618984375,0.357149321906806
-0.0002616484374999999,0.3497792468448597
-0.0002613984375,0.3460942093138865
-0.0002611484375,0.3460942093138865
-0.0002608984375,0.3460942093138865
-0.0002606484375,0.3424091717829132
-0.0002603984375,0.3460942093138865
-0.0002601484375,0.3460942093138865
-0.0002598984375,0.3424091717829132
-0.0002596484375,0.3460942093138865
-0.0002593984375,0.3460942093138865
-0.0002591484374999999,0.3424091717829132
-0.0002588984375,0.3460942093138865
-0.0002586484375,0.3424091717829132
-0.0002583984374999999,0.3460942093138865
-0.0002581484375,0.3460942093138865
-0.0002578984375,0.3460942093138865
-0.0002576484375,0.3497792468448597
-0.0002573984375,0.3497792468448597
-0.0002571484375,0.3497792468448597
-0.0002568984375,0.3460942093138865
-0.0002566484375,0.3424091717829132
-0.0002563984375,0.3424091717829132
-0.0002561484375,0.3387241342519401
-0.0002558984374999999,0.3534642843758329
-0.0002556484375,0.3497792468448597
-0.0002553984375,0.3497792468448597
-0.0002551484374999999,0.3497792468448597
-0.0002548984375,0.3460942093138865
-0.0002546484375,0.3460942093138865
-0.0002543984375,0.3424091717829132
-0.0002541484375,0.3460942093138865
-0.0002538984375,0.3497792468448597
-0.0002536484375,0.3497792468448597
-0.0002533984375,0.3534642843758329
-0.0002531484375,0.3497792468448597
-0.0002528984375,0.3534642843758329
-0.0002526484374999999,0.3497792468448597
-0.0002523984375,0.3497792468448597
-0.0002521484375,0.3460942093138865
-0.0002518984375,0.3313540591899937
-0.0002516484375,0.3166139090661009
-0.0002513984375,0.3092438340041545
-0.0002511484375,0.3055587964731813
-0.0002508984375,0.3055587964731813
-0.0002506484375,0.3055587964731813
-0.0002503984375,0.3092438340041545
-0.0002501484375,0.3092438340041545
-0.0002498984375,0.3055587964731813
-0.0002496484375,0.3129288715351277
-0.0002493984374999999,0.3129288715351277
-0.0002491484375,0.3129288715351277
-0.0002488984375,0.3092438340041545
-0.0002486484375,0.3055587964731813
-0.0002483984375,0.3092438340041545
-0.0002481484375,0.3055587964731813
-0.0002478984375,0.3055587964731813
-0.0002476484375,0.3092438340041545
-0.0002473984375,0.3129288715351277
-0.0002471484375,0.3092438340041545
-0.0002468984374999999,0.3092438340041545
-0.0002466484375,0.3055587964731813
-0.0002463984375,0.3092438340041545
-0.0002461484374999999,0.3055587964731813
-0.0002458984375,0.3055587964731813
-0.0002456484375,0.3055587964731813
-0.0002453984375,0.2981887214112349
-0.0002451484375,0.3018737589422081
-0.0002448984375,0.2981887214112349
-0.0002446484375,0.3018737589422081
-0.0002443984375,0.3018737589422081
-0.0002441484375,0.2981887214112349
-0.0002438984375,0.2981887214112349
-0.0002436484374999999,0.3018737589422081
-0.0002433984375,0.3055587964731813
-0.0002431484375,0.3018737589422081
-0.0002428984375,0.3092438340041545
-0.0002426484375,0.3092438340041545
-0.0002423984375,0.3055587964731813
-0.0002421484375,0.3055587964731813
-0.0002418984375,0.3092438340041545
-0.0002416484375,0.3092438340041545
-0.0002413984375,0.2834485712873421
-0.0002411484375,0.2687084211634493
-0.0002408984375,0.2687084211634493
-0.0002406484375,0.2650233836324762
-0.0002403984374999999,0.2650233836324762
-0.0002401484375,0.2723934586944226
-0.0002398984375,0.2687084211634493
-0.0002396484375,0.2650233836324762
-0.0002393984375,0.2650233836324762
-0.0002391484375,0.2687084211634493
-0.0002388984375,0.2650233836324762
-0.0002386484375,0.261338346101503
-0.0002383984375,0.2650233836324762
-0.0002381484375,0.2650233836324762
-0.0002378984374999999,0.261338346101503
-0.0002376484375,0.2650233836324762
-0.0002373984375,0.261338346101503
-0.0002371484374999999,0.2723934586944226
-0.0002368984375,0.2723934586944226
-0.0002366484375,0.2723934586944226
-0.0002363984375,0.2723934586944226
-0.0002361484375,0.2723934586944226
-0.0002358984375,0.2760784962253958
-0.0002356484375,0.2723934586944226
-0.0002353984375,0.2723934586944226
-0.0002351484375,0.261338346101503
-0.0002348984375,0.2687084211634493
-0.0002346484374999999,0.2687084211634493
-0.0002343984375,0.261338346101503
-0.0002341484375,0.261338346101503
-0.0002338984374999999,0.261338346101503
-0.0002336484375,0.2576533085705298
-0.0002333984375,0.261338346101503
-0.0002331484375,0.2650233836324762
-0.0002328984375,0.2576533085705298
-0.0002326484375,0.2687084211634493
-0.0002323984375,0.261338346101503
-0.0002321484375,0.2650233836324762
-0.0002318984375,0.261338346101503
-0.0002316484375,0.261338346101503
-0.0002313984374999999,0.261338346101503
-0.0002311484375,0.261338346101503
-0.0002308984375,0.2318580458537174
-0.0002306484375,0.2355430833846906
-0.0002303984375,0.2281730083227442
-0.0002301484375,0.2281730083227442
-0.0002298984375,0.2281730083227442
-0.0002296484375,0.2318580458537174
-0.0002293984375,0.2355430833846906
-0.0002291484375,0.2318580458537174
-0.0002288984375,0.2318580458537174
-0.0002286484375,0.2355430833846906
-0.0002283984375,0.2355430833846906
-0.0002281484374999999,0.2392281209156638
-0.0002278984375,0.2392281209156638
-0.0002276484375,0.2355430833846906
-0.0002273984375,0.2355430833846906
-0.0002271484375,0.2355430833846906
-0.0002268984375,0.2281730083227442
-0.0002266484375,0.2318580458537174
-0.0002263984375,0.2318580458537174
-0.0002261484375,0.2318580458537174
-0.0002258984375,0.2318580458537174
-0.0002256484374999999,0.2318580458537174
-0.0002253984375,0.2281730083227442
-0.0002251484375,0.2318580458537174
-0.0002248984374999999,0.2355430833846906
-0.0002246484375,0.2318580458537174
-0.0002243984375,0.2281730083227442
-0.0002241484375,0.2318580458537174
-0.0002238984375,0.2318580458537174
-0.0002236484375,0.224487970791771
-0.0002233984375,0.2281730083227442
-0.0002231484375,0.224487970791771
-0.0002228984375,0.224487970791771
-0.0002226484375,0.224487970791771
-0.0002223984374999999,0.2208029332607978
-0.0002221484375,0.224487970791771
-0.0002218984375,0.2318580458537174
-0.0002216484374999999,0.2355430833846906
-0.0002213984375,0.2355430833846906
-0.0002211484375,0.2355430833846906
-0.0002208984375,0.2281730083227442
-0.0002206484375,0.2208029332607978
-0.0002203984375,0.2023777456059318
-0.0002201484375,0.1986927080749586
-0.0002198984375,0.1986927080749586
-0.0002196484375,0.2023777456059318
-0.0002193984375,0.2023777456059318
-0.0002191484374999999,0.2023777456059318
-0.0002188984375,0.1986927080749586
-0.0002186484375,0.2023777456059318
-0.0002183984375,0.2023777456059318
-0.0002181484375,0.2023777456059318
-0.0002178984375,0.206062783136905
-0.0002176484375,0.206062783136905
-0.0002173984375,0.206062783136905
-0.0002171484375,0.2023777456059318
-0.0002168984375,0.2023777456059318
-0.0002166484375,0.206062783136905
-0.0002163984375,0.1986927080749586
-0.0002161484375,0.1986927080749586
-0.0002158984374999999,0.1986927080749586
-0.0002156484375,0.2023777456059318
-0.0002153984375,0.1986927080749586
-0.0002151484375,0.2023777456059318
-0.0002148984375,0.2023777456059318
-0.0002146484375,0.2023777456059318
-0.0002143984375,0.2023777456059318
-0.0002141484375,0.1950076705439855
-0.0002138984375,0.2023777456059318
-0.0002136484375,0.1986927080749586
