sample rate determination/end.csv

#Digilent WaveForms Oscilloscope Acquisition
#Device Name: Discovery2
#Serial Number: SN:210321AA234B
#Date Time: 2020-06-18 10:30:07.299
#Sample rate: 4e+06Hz
#Samples: 8192
#Trigger: Source: Channel 1 Type: Edge Condition: Rising Level: 2.6 V Hyst.: Auto HoldOff: 0 s
#Channel 1: Range: 1 V/div Offset: 0 V Attenuation: 1 X

Time (s),Channel 1 (V)
0.198475828125,1.76851869626954
0.198476078125,1.768518696269392
0.198476328125,1.764833658738721
0.198476578125,1.757463583676718
0.198476828125,1.764833658738624
0.198477078125,1.76851869626954
0.198477328125,1.76851869626954
0.198477578125,1.7648336587386
0.198477828125,1.76851869626954
0.198478078125,1.76851869626954
0.198478328125,1.76851869626954
0.198478578125,1.76851869626954
0.198478828125,1.805369071579359
0.198479078125,1.809054109110245
0.198479328125,1.809054109110245
0.198479578125,1.812739146641213
0.198479828125,1.812739146641218
0.198480078125,1.812739146641218
0.198480328125,1.812739146641218
0.198480578125,1.816424184172182
0.198480828125,1.812739146641218
0.198481078125,1.812739146641218
0.198481328125,1.816424184172111
0.198481578125,1.82010922170314
0.198481828125,1.816424184172192
0.198482078125,1.816424184172192
0.198482328125,1.820109221703098
0.198482578125,1.812739146641218
0.198482828125,1.812739146641364
0.198483078125,1.816424184172034
0.198483328125,1.81273914664127
0.198483578125,1.816424184172192
0.198483828125,1.816424184172031
0.198484078125,1.81273914664136
0.198484328125,1.816424184172155
0.198484578125,1.816424184172123
0.198484828125,1.812739146641392
0.198485078125,1.816424184172063
0.198485328125,1.816424184172192
0.198485578125,1.816424184172275
0.198485828125,1.820109221702786
0.198486078125,1.812739146641446
0.198486328125,1.820109221703151
0.198486578125,1.820109221703066
0.198486828125,1.816424184172192
0.198487078125,1.816424184172192
0.198487328125,1.816424184172192
0.198487578125,1.816424184172192
0.198487828125,1.816424184172192
0.198488078125,1.816424184172192
0.198488328125,1.809054109110245
0.198488578125,1.809054109110245
0.198488828125,1.809054109110245
0.198489078125,1.827479296764768
0.198489328125,1.849589521950987
0.198489578125,1.853274559482208
0.198489828125,1.860644634543548
0.198490078125,1.856959597012952
0.198490328125,1.864329672074843
0.198490578125,1.864329672074686
0.198490828125,1.860644634544016
0.198491078125,1.86064463454387
0.198491328125,1.860644634543935
0.198491578125,1.864329672074843
0.198491828125,1.864329672074843
0.198492078125,1.868014709605791
0.198492328125,1.864329672074923
0.198492578125,1.868014709605816
0.198492828125,1.868014709605816
0.198493078125,1.864329672074853
0.198493328125,1.864329672074843
0.198493578125,1.864329672074843
0.198493828125,1.864329672074843
0.198494078125,1.868014709605811
0.198494328125,1.864329672074732
0.198494578125,1.860644634544063
0.198494828125,1.86064463454387
0.198495078125,1.860644634543888
0.198495328125,1.864329672074717
0.198495578125,1.860644634544047
0.198495828125,1.864329672074771
0.198496078125,1.868014709605816
0.198496328125,1.868014709605816
0.198496578125,1.868014709605816
0.198496828125,1.868014709605816
0.198497078125,1.871699747136789
0.198497328125,1.871699747136789
0.198497578125,1.871699747136789
0.198497828125,1.871699747136789
0.198498078125,1.868014709605816
0.198498328125,1.868014709605647
0.198498578125,1.864329672074977
0.198498828125,1.868014709605788
0.198499078125,1.868014709605816
0.198499328125,1.868014709606738
0.198499578125,1.886439897260087
0.198499828125,1.901180047384521
0.198500078125,1.908550122446521
0.198500328125,1.908550122446521
0.198500578125,1.908550122446521
0.198500828125,1.912235159977494
0.198501078125,1.912235159977494
0.198501328125,1.912235159977494
0.198501578125,1.912235159977494
0.198501828125,1.915920197508468
0.198502078125,1.915920197508468
0.198502328125,1.915920197508468
0.198502578125,1.915920197508468
0.198502828125,1.919605235039409
0.198503078125,1.915920197508193
0.198503328125,1.908550122446853
0.198503578125,1.915920197508347
0.198503828125,1.915920197508468
0.198504078125,1.915920197508315
0.198504328125,1.912235159977645
0.198504578125,1.912235159977494
0.198504828125,1.915920197508407
0.198505078125,1.912235159977494
0.198505328125,1.912235159977494
0.198505578125,1.912235159977494
0.198505828125,1.915920197508392
0.198506078125,1.912235159977675
0.198506328125,1.915920197508345
0.198506578125,1.915920197508468
0.198506828125,1.912235159977494
0.198507078125,1.912235159977494
0.198507328125,1.912235159977494
0.198507578125,1.912235159977494
0.198507828125,1.908550122446627
0.198508078125,1.912235159977297
0.198508328125,1.908550122446613
0.198508578125,1.908550122446535
0.198508828125,1.912235159977494
0.198509078125,1.912235159977494
0.198509328125,1.908550122446598
0.198509578125,1.912235159977494
0.198509828125,1.912235159978299
0.198510078125,1.934345385162318
0.198510328125,1.938030422694243
0.198510578125,1.941715460225324
0.198510828125,1.945400497756403
0.198511078125,1.949085535287072
0.198511328125,1.949085535287227
0.198511578125,1.945400497756312
0.198511828125,1.949085535287391
0.198512078125,1.952770572818061
0.198512328125,1.956455610349139
0.198512578125,1.956455610349173
0.198512828125,1.956455610348814
0.198513078125,1.949085535287475
0.198513328125,1.949085535287227
0.198513578125,1.949085535287314
0.198513828125,1.952770572818392
0.198514078125,1.956455610349062
0.198514328125,1.956455610349173
0.198514578125,1.9527705728182
0.198514828125,1.9527705728182
0.198515078125,1.9527705728182
0.198515328125,1.949085535287247
0.198515578125,1.956455610348938
0.198515828125,1.949085535287598
0.198516078125,1.949085535287227
0.198516328125,1.945400497756253
0.198516578125,1.945400497756253
0.198516828125,1.945400497756253
0.198517078125,1.949085535287161
0.198517328125,1.952770572818119
0.198517578125,1.945400497756253
0.198517828125,1.945400497756253
0.198518078125,1.945400497756253
0.198518328125,1.941715460225391
0.198518578125,1.949085535287227
0.198518828125,1.949085535287227
0.198519078125,1.949085535287227
0.198519328125,1.952770572818059
0.198519578125,1.945400497756429
0.198519828125,1.949085535287099
0.198520078125,1.952770572818178
0.198520328125,1.952770572818702
0.198520578125,1.97488079800423
0.198520828125,1.9785658355349
0.198521078125,1.985935910596945
0.198521328125,1.989620948127932
0.198521578125,1.989620948127932
0.198521828125,1.985935910597056
0.198522078125,1.989620948127923
0.198522328125,1.985935910597072
0.198522578125,1.989620948127742
0.198522828125,1.989620948127932
0.198523078125,1.989620948127932
0.198523328125,1.989620948127932
0.198523578125,1.989620948127932
0.198523828125,1.993305985658836
0.198524078125,1.989620948127969
0.198524328125,1.993305985658617
0.198524578125,1.985935910597277
0.198524828125,1.989620948127878
0.198525078125,1.98593591059701
0.198525328125,1.989620948127932
0.198525578125,1.989620948127932
0.198525828125,1.989620948127932
0.198526078125,1.985935910596959
0.198526328125,1.985935910597131
0.198526578125,1.989620948127801
0.198526828125,1.985935910596982
0.198527078125,1.985935910597041
0.198527328125,1.989620948128119
0.198527578125,1.993305985658789
0.198527828125,1.989620948127942
0.198528078125,1.989620948128029
0.198528328125,1.993305985658702
0.198528578125,1.989620948128032
0.198528828125,1.985935910596969
0.198529078125,1.993305985658905
0.198529328125,1.993305985658905
0.198529578125,1.993305985658905
0.198529828125,1.993305985658905
0.198530078125,1.993305985658905
0.198530328125,1.993305985658905
0.198530578125,1.993305985658905
0.198530828125,1.996991023190089
0.198531078125,2.019101248375858
0.198531328125,2.022786285906528
0.198531578125,2.026471323437606
0.198531828125,2.030156360968587
0.198532078125,2.026471323437507
0.198532328125,2.022786285906838
0.198532578125,2.030156360968553
0.198532828125,2.02278628590669
0.198533078125,2.022786285907032
0.198533328125,2.030156360968372
0.198533578125,2.022786285906744
0.198533828125,2.022786285906769
0.198534078125,2.026471323437295
0.198534328125,2.019101248375955
0.198534578125,2.019101248375717
0.198534828125,2.019101248375717
0.198535078125,2.019101248375518
0.198535328125,2.015416210844848
0.198535578125,2.022786285906687
0.198535828125,2.019101248375717
0.198536078125,2.019101248375717
0.198536328125,2.022786285906601
0.198536578125,2.026471323437663
0.198536828125,2.026471323437663
0.198537078125,2.026471323437663
0.198537328125,2.030156360968563
0.198537578125,2.022786285906722
0.198537828125,2.0264713234378
0.198538078125,2.030156360968471
0.198538328125,2.022786285906808
0.198538578125,2.026471323437616
0.198538828125,2.02278628590669
0.198539078125,2.02278628590669
0.198539328125,2.019101248375763
0.198539578125,2.02278628590669
0.198539828125,2.022786285906858
0.198540078125,2.026471323437527
0.198540328125,2.02278628590672
0.198540578125,2.022786285906615
0.198540828125,2.0191012483759
0.198541078125,2.02278628590657
0.198541328125,2.033841398499565
0.198541578125,2.041211473561647
0.198541828125,2.044896511092727
0.198542078125,2.048581548623397
0.198542328125,2.048581548623503
0.198542578125,2.05226658615437
0.198542828125,2.0485815486237
0.198543078125,2.052266586154383
0.198543328125,2.048581548623488
0.198543578125,2.04489651109265
0.198543828125,2.04858154862332
0.198544078125,2.052266586154398
0.198544328125,2.048581548623559
0.198544578125,2.055951623685313
0.198544828125,2.052266586154643
0.198545078125,2.052266586154476
0.198545328125,2.04858154862359
0.198545578125,2.055951623685449
0.198545828125,2.055951623685449
0.198546078125,2.055951623685449
0.198546328125,2.055951623685391
0.198546578125,2.05226658615464
0.198546828125,2.05595162368531
0.198547078125,2.05963666121639
0.198547328125,2.055951623685449
0.198547578125,2.055951623685629
0.198547828125,2.059636661216298
0.198548078125,2.055951623685468
0.198548328125,2.052266586154653
0.198548578125,2.059636661216228
0.198548828125,2.055951623685558
0.198549078125,2.052266586154479
0.198549328125,2.055951623685347
0.198549578125,2.052266586154675
0.198549828125,2.052266586154476
0.198550078125,2.052266586154487
0.198550328125,2.055951623685567
0.198550578125,2.059636661216236
0.198550828125,2.052266586154633
0.198551078125,2.052266586154449
0.198551328125,2.048581548623635
0.198551578125,2.052266586154305
0.198551828125,2.074376811339923
0.198552078125,2.070691773809384
0.198552328125,2.074376811340315
0.198552578125,2.074376811340315
0.198552828125,2.074376811340315
0.198553078125,2.074376811340315
0.198553328125,2.074376811340477
0.198553578125,2.078061848871148
0.198553828125,2.081746886402227
0.198554078125,2.078061848871359
0.198554328125,2.08174688640191
0.198554578125,2.07437681134057
0.198554828125,2.074376811340315
0.198555078125,2.074376811340315
0.198555328125,2.074376811340315
0.198555578125,2.074376811340315
0.198555828125,2.078061848871284
0.198556078125,2.074376811340315
0.198556328125,2.074376811340315
0.198556578125,2.078061848871191
0.198556828125,2.07806184887128
0.198557078125,2.074376811340315
0.198557328125,2.074376811340315
0.198557578125,2.074376811340315
0.198557828125,2.074376811340362
0.198558078125,2.081746886402004
0.198558328125,2.074376811340664
0.198558578125,2.085431923933033
0.198558828125,2.0817468864023
0.198559078125,2.08543192393309
0.198559328125,2.081746886402421
0.198559578125,2.078061848871342
0.198559828125,2.081746886402154
0.198560078125,2.074376811340474
0.198560328125,2.078061848871144
0.198560578125,2.078061848871289
0.198560828125,2.078061848871358
0.198561078125,2.081746886402088
0.198561328125,2.078061848871418
0.198561578125,2.078061848871289
0.198561828125,2.078061848871207
0.198562078125,2.074376811341073
0.198562328125,2.089116961463752
0.198562578125,2.089116961464208
0.198562828125,2.089116961464208
0.198563078125,2.089116961464411
0.198563328125,2.092801998995081
0.198563578125,2.092801998995181
0.198563828125,2.092801998995294
0.198564078125,2.096487036525963
0.198564328125,2.092801998995267
0.198564578125,2.096487036526154
0.198564828125,2.096487036526027
0.198565078125,2.092801998995357
0.198565328125,2.096487036526084
0.198565578125,2.100172074057092
0.198565828125,2.096487036526154
0.198566078125,2.096487036526154
0.198566328125,2.096487036526154
0.198566578125,2.092801998995232
0.198566828125,2.096487036526154
0.198567078125,2.096487036526154
0.198567328125,2.096487036526154
0.198567578125,2.096487036526154
0.198567828125,2.096487036526325
0.198568078125,2.100172074056995
0.198568328125,2.096487036526181
0.198568578125,2.096487036526235
0.198568828125,2.100172074057313
0.198569078125,2.103857111587984
0.198569328125,2.092801998995216
0.198569578125,2.092801998995275
0.198569828125,2.096487036526154
0.198570078125,2.096487036526154
0.198570328125,2.100172074057124
0.198570578125,2.096487036526263
0.198570828125,2.100172074056933
0.198571078125,2.100172074057127
0.198571328125,2.100172074057127
0.198571578125,2.100172074057127
0.198571828125,2.100172074057127
0.198572078125,2.100172074057127
0.198572328125,2.096487036526188
0.198572578125,2.100172074057405
0.198572828125,2.107542149118745
0.198573078125,2.107542149119074
0.198573328125,2.103857111588148
0.198573578125,2.10754214911892
0.198573828125,2.10385711158825
0.198574078125,2.100172074057171
0.198574328125,2.107542149119012
0.198574578125,2.103857111588101
0.198574828125,2.103857111588101
0.198575078125,2.100172074057156
0.198575328125,2.10754214911892
0.198575578125,2.100172074057493
0.198575828125,2.107542149118833
0.198576078125,2.107542149119074
0.198576328125,2.103857111588193
0.198576578125,2.107542149118876
0.198576828125,2.103857111588207
0.198577078125,2.107542149119074
0.198577328125,2.103857111588209
0.198577578125,2.107542149118878
0.198577828125,2.111227186649956
0.198578078125,2.111227186650047
0.198578328125,2.111227186649926
0.198578578125,2.107542149119257
0.198578828125,2.111227186649971
0.198579078125,2.103857111588101
0.198579328125,2.103857111588101
0.198579578125,2.103857111588101
0.198579828125,2.107542149119014
0.198580078125,2.103857111588146
0.198580328125,2.107542149119074
0.198580578125,2.107542149119074
0.198580828125,2.107542149119074
0.198581078125,2.107542149119074
0.198581328125,2.107542149119074
0.198581578125,2.107542149119074
0.198581828125,2.107542149119074
0.198582078125,2.111227186649973
0.198582328125,2.107542149119074
0.198582578125,2.107542149119074
0.198582828125,2.107542149119074
0.198583078125,2.107542149119252
0.198583328125,2.114912224181214
0.198583578125,2.118597261711885
0.198583828125,2.114912224181022
0.198584078125,2.118597261712098
0.198584328125,2.122282299242767
0.198584578125,2.122282299242967
0.198584828125,2.12228229924298
0.198585078125,2.125967336774059
0.198585328125,2.129652374304729
0.198585578125,2.125967336774018
0.198585828125,2.12596733677394
0.198586078125,2.125967336773805
0.198586328125,2.122282299243136
0.198586578125,2.125967336773876
0.198586828125,2.122282299243051
0.198587078125,2.129652374305061
0.198587328125,2.13333741183573
0.198587578125,2.129652374304962
0.198587828125,2.129652374304857
0.198588078125,2.125967336774102
0.198588328125,2.129652374304773
0.198588578125,2.125967336773975
0.198588828125,2.122282299243039
0.198589078125,2.12596733677394
0.198589328125,2.12596733677394
0.198589578125,2.122282299242987
0.198589828125,2.122282299243052
0.198590078125,2.12596733677394
0.198590328125,2.12596733677394
0.198590578125,2.12596733677394
0.198590828125,2.12596733677404
0.198591078125,2.12965237430471
0.198591328125,2.125967336774035
0.198591578125,2.125967336773929
0.198591828125,2.122282299243082
0.198592078125,2.125967336773752
0.198592328125,2.12596733677394
0.198592578125,2.125967336773914
0.198592828125,2.122282299242967
0.198593078125,2.122282299242967
0.198593328125,2.122282299242967
0.198593578125,2.122282299243044
0.198593828125,2.129652374304768
0.198594078125,2.125967336774097
0.198594328125,2.12596733677394
0.198594578125,2.12228229924302
0.198594828125,2.125967336774099
0.198595078125,2.129652374304771
0.198595328125,2.129652374304913
0.198595578125,2.133337411835817
0.198595828125,2.129652374304739
0.198596078125,2.125967336774069
0.198596328125,2.133337411835843
0.198596578125,2.129652374304997
0.198596828125,2.133337411835886
0.198597078125,2.133337411835886
0.198597328125,2.133337411835886
0.198597578125,2.13702244936676
0.198597828125,2.133337411836091
0.198598078125,2.13702244936676
0.198598328125,2.133337411835886
0.198598578125,2.133337411835774
0.198598828125,2.129652374305103
0.198599078125,2.125967336774023
0.198599328125,2.122282299242967
0.198599578125,2.122282299242967
0.198599828125,2.122282299242967
0.198600078125,2.125967336773871
0.198600328125,2.118597261712031
0.198600578125,2.122282299243109
0.198600828125,2.125967336773779
0.198601078125,2.129652374304858
0.198601328125,2.129652374304861
0.198601578125,2.125967336773782
0.198601828125,2.122282299243112
0.198602078125,2.125967336773899
0.198602328125,2.125967336774005
0.198602578125,2.129652374304913
0.198602828125,2.129652374304913
0.198603078125,2.129652374304913
0.198603328125,2.129652374304833
0.198603578125,2.125967336774312
0.198603828125,2.133337411835652
0.198604078125,2.129652374304924
0.198604328125,2.129652374304818
0.198604578125,2.125967336774342
0.198604828125,2.133337411835682
0.198605078125,2.133337411835897
0.198605328125,2.140707486897723
0.198605578125,2.137022449367052
0.198605828125,2.133337411835973
0.198606078125,2.133337411835886
0.198606328125,2.133337411836012
0.198606578125,2.137022449366682
0.198606828125,2.137022449366859
0.198607078125,2.137022449366826
0.198607328125,2.133337411836164
0.198607578125,2.140707486897504
0.198607828125,2.137022449366916
0.198608078125,2.129652374304865
0.198608328125,2.125967336774094
0.198608578125,2.129652374304764
0.198608828125,2.125967336773983
0.198609078125,2.129652374304913
0.198609328125,2.129652374304575
0.198609578125,2.122282299243235
0.198609828125,2.129652374304857
0.198610078125,2.129652374304835
0.198610328125,2.125967336774124
0.198610578125,2.129652374304794
0.198610828125,2.125967336773953
0.198611078125,2.12596733677394
0.198611328125,2.12596733677374
0.198611578125,2.122282299243071
0.198611828125,2.12596733677394
0.198612078125,2.125967336774047
0.198612328125,2.129652374304718
0.198612578125,2.129652374304913
0.198612828125,2.125967336773956
0.198613078125,2.129652374304791
0.198613328125,2.125967336774121
0.198613578125,2.12596733677394
0.198613828125,2.129652374304913
0.198614078125,2.129652374304776
0.198614328125,2.125967336774106
0.198614578125,2.129652374304853
0.198614828125,2.12596733677394
0.198615078125,2.125967336773789
0.198615328125,2.122282299243118
0.198615578125,2.122282299242967
0.198615828125,2.122282299243027
0.198616078125,2.125967336773442
0.198616328125,2.114912224181432
0.198616578125,2.122282299242906
0.198616828125,2.122282299242967
0.198617078125,2.122282299243148
0.198617328125,2.125967336773817
0.198617578125,2.122282299242984
0.198617828125,2.12596733677394
0.198618078125,2.125967336774135
0.198618328125,2.129652374304806
0.198618578125,2.133337411835885
0.198618828125,2.125967336774147
0.198619078125,2.133337411835491
0.198619328125,2.125967336774124
0.198619578125,2.125967336773953
0.198619828125,2.129652374305032
0.198620078125,2.133337411835702
0.198620328125,2.129652374304991
0.198620578125,2.129652374304913
0.198620828125,2.129652374305048
0.198621078125,2.133337411835717
0.198621328125,2.133337411835886
0.198621578125,2.129652374304957
0.198621828125,2.133337411835886
0.198622078125,2.133337411835886
0.198622328125,2.133337411835886
0.198622578125,2.125967336773883
0.198622828125,2.122282299243131
0.198623078125,2.125967336773801
0.198623328125,2.122282299243
0.198623578125,2.122282299243039
0.198623828125,2.12596733677394
0.198624078125,2.12596733677394
0.198624328125,2.12596733677394
0.198624578125,2.118597261712081
0.198624828125,2.122282299242967
