sample rate determination/end_9.6MHz.csv

#Digilent WaveForms Oscilloscope Acquisition
#Device Name: Discovery2
#Serial Number: SN:210321AA234B
#Date Time: 2020-06-18 14:55:25.284
#Sample rate: 4e+06Hz
#Samples: 8192
#Trigger: Source: Channel 1 Type: Edge Condition: Rising Level: 2.6 V Hyst.: Auto HoldOff: 0 s
#Channel 1: Range: 1 V/div Offset: 0 V Attenuation: 1 X

Time (s),Channel 1 (V)
0.3978961653846154,1.499510956509227
0.3978964153846154,1.49214088144655
0.3978966653846154,1.49214088144655
0.3978969153846154,1.492140881446911
0.3978971653846154,1.495825918977523
0.3978974153846154,1.495825918977523
0.3978976653846154,1.495825918977792
0.3978979153846154,1.499510956508463
0.3978981653846154,1.49582591897786
0.3978984153846154,1.492140881446373
0.3978986653846154,1.488455843915703
0.3978989153846154,1.49214088144655
0.3978991653846154,1.49214088144655
0.3978994153846154,1.49214088144655
0.3978996653846154,1.447920431073977
0.3978999153846154,1.436865318481968
0.3979001653846154,1.429495243420623
0.3979004153846154,1.429495243419798
0.3979006653846154,1.425810205889128
0.3979009153846154,1.422125168358458
0.3979011653846154,1.418440130827086
0.3979014153846154,1.418440130827086
0.3979016653846154,1.418440130827086
0.3979019153846154,1.418440130827112
0.3979021653846154,1.422125168357781
0.3979024153846154,1.42212516835806
0.3979026653846154,1.42212516835806
0.3979029153846154,1.425810205888662
0.3979031653846154,1.425810205889179
0.3979034153846154,1.429495243419848
0.3979036653846154,1.425810205889033
0.3979039153846154,1.425810205889086
0.3979041653846154,1.429495243419756
0.3979044153846154,1.433180280950979
0.3979046653846154,1.433180280950979
0.3979049153846154,1.429495243420346
0.3979051653846154,1.429495243420006
0.3979054153846154,1.429495243420006
0.3979056653846154,1.429495243419619
0.3979059153846154,1.425810205889116
0.3979061653846154,1.429495243419786
0.3979064153846154,1.429495243420006
0.3979066653846154,1.429495243420006
0.3979069153846154,1.429495243420006
0.3979071653846154,1.429495243419801
0.3979074153846154,1.425810205889132
0.3979076653846154,1.425810205889033
0.3979079153846154,1.422125168358173
0.3979081653846154,1.425810205888843
0.3979084153846154,1.425810205889033
0.3979086653846154,1.425810205889033
0.3979089153846154,1.425810205889033
0.3979091653846154,1.429495243420006
0.3979094153846154,1.429495243420006
0.3979096653846154,1.429495243420006
0.3979099153846154,1.414755093294831
0.3979101653846154,1.381589755518802
0.3979104153846154,1.377904717985671
0.3979106653846154,1.370534642924383
0.3979109153846154,1.366849605393713
0.3979111653846154,1.366849605393198
0.3979114153846154,1.363164567862529
0.3979116653846154,1.363164567862488
0.3979119153846154,1.352109455269741
0.3979121653846154,1.355794492800411
0.3979124153846154,1.355794492800926
0.3979126653846154,1.359479530331515
0.3979129153846154,1.359479530331515
0.3979131653846154,1.359479530331515
0.3979134153846154,1.359479530331515
0.3979136653846154,1.359479530331515
0.3979139153846154,1.359479530331314
0.3979141653846154,1.355794492800644
0.3979144153846154,1.348424417739407
0.3979146653846154,1.352109455269569
0.3979149153846154,1.352109455269569
0.3979151653846154,1.355794492800864
0.3979154153846154,1.359479530331552
0.3979156653846154,1.366849605392895
0.3979159153846154,1.36684960539323
0.3979161653846154,1.363164567862561
0.3979164153846154,1.363164567862488
0.3979166653846154,1.359479530331515
0.3979169153846154,1.359479530331515
0.3979171653846154,1.359479530331515
0.3979174153846154,1.359479530331564
0.3979176653846154,1.363164567862234
0.3979179153846154,1.359479530332038
0.3979181653846154,1.366849605393378
0.3979184153846154,1.363164567862834
0.3979186653846154,1.36316456786215
0.3979189153846154,1.35579449280081
0.3979191653846154,1.359479530331133
0.3979194153846154,1.355794492800621
0.3979196653846154,1.359479530331291
0.3979199153846154,1.355794492800832
0.3979201653846154,1.359479530331502
0.3979204153846154,1.329999230086263
0.3979206653846154,1.304203967366518
0.3979209153846154,1.296833892305179
0.3979211653846154,1.293148854774405
0.3979214153846154,1.293148854773998
0.3979216653846154,1.293148854773998
0.3979219153846154,1.293148854774318
0.3979221653846154,1.296833892304954
0.3979224153846154,1.293148854774284
0.3979226653846154,1.296833892304515
0.3979229153846154,1.289463817243175
0.3979231653846154,1.293148854773619
0.3979234153846154,1.285778779712189
0.3979236653846154,1.289463817242859
0.3979239153846154,1.289463817243373
0.3979241653846154,1.293148854773998
0.3979244153846154,1.293148854773998
0.3979246653846154,1.289463817243025
0.3979249153846154,1.289463817243025
0.3979251653846154,1.293148854773649
0.3979254153846154,1.293148854773832
0.3979256653846154,1.289463817243162
0.3979259153846154,1.293148854774377
0.3979261653846154,1.296833892304971
0.3979264153846154,1.296833892304971
0.3979266653846154,1.289463817243025
0.3979269153846154,1.289463817243025
0.3979271653846154,1.293148854773679
0.3979274153846154,1.296833892304971
0.3979276653846154,1.296833892304971
0.3979279153846154,1.300518929835534
0.3979281653846154,1.300518929835944
0.3979284153846154,1.300518929835944
0.3979286653846154,1.300518929835627
0.3979289153846154,1.296833892304971
0.3979291653846154,1.296833892304971
0.3979294153846154,1.296833892304971
0.3979296653846154,1.296833892304971
0.3979299153846154,1.296833892304971
0.3979301653846154,1.296833892304971
0.3979304153846154,1.296833892304971
0.3979306653846154,1.300518929831435
0.3979309153846154,1.252613441933075
0.3979311653846154,1.234188254279725
0.3979314153846154,1.230503216747199
0.3979316653846154,1.226818179216529
0.3979319153846154,1.22681817921648
0.3979321653846154,1.226818179216316
0.3979324153846154,1.223133141685646
0.3979326653846154,1.22681817921648
0.3979329153846154,1.226818179216552
0.3979331653846154,1.230503216747222
0.3979334153846154,1.226818179216195
0.3979336653846154,1.223133141685525
0.3979339153846154,1.223133141685507
0.3979341653846154,1.226818179216288
0.3979344153846154,1.223133141685617
0.3979346653846154,1.22681817921648
0.3979349153846154,1.226818179216378
0.3979351653846154,1.223133141685708
0.3979354153846154,1.223133141685194
0.3979356653846154,1.219448104154534
0.3979359153846154,1.219448104154534
0.3979361653846154,1.22313314168573
0.3979364153846154,1.2268181792164
0.3979366653846154,1.223133141685891
0.3979369153846154,1.223133141685638
0.3979371653846154,1.226818179216309
0.3979374153846154,1.223133141685163
0.3979376653846154,1.219448104154534
0.3979379153846154,1.219448104154534
0.3979381653846154,1.226818179216227
0.3979384153846154,1.223133141685557
0.3979386653846154,1.226818179216127
0.3979389153846154,1.223133141685668
0.3979391653846154,1.226818179216338
0.3979394153846154,1.23050321674708
0.3979396653846154,1.226818179216691
0.3979399153846154,1.237873291808701
0.3979401653846154,1.230503216747735
0.3979404153846154,1.234188254278405
0.3979406653846154,1.230503216747779
0.3979409153846154,1.23050321674688
0.3979411653846154,1.219448104154871
0.3979414153846154,1.175227653782453
0.3979416653846154,1.171542616251684
0.3979419153846154,1.164172541190345
0.3979421653846154,1.160487503658963
0.3979424153846154,1.160487503658954
0.3979426653846154,1.156802466128284
0.3979429153846154,1.153117428597016
0.3979431653846154,1.153117428597016
0.3979434153846154,1.14943239106643
0.3979436653846154,1.156802466127989
0.3979439153846154,1.156802466127989
0.3979441653846154,1.160487503658282
0.3979444153846154,1.153117428597016
0.3979446653846154,1.153117428597016
0.3979449153846154,1.149432391066293
0.3979451653846154,1.153117428596963
0.3979454153846154,1.153117428597016
0.3979456653846154,1.153117428597331
0.3979459153846154,1.160487503658674
0.3979461653846154,1.153117428597387
0.3979464153846154,1.156802466127922
0.3979466653846154,1.153117428597253
0.3979469153846154,1.153117428597294
0.3979471653846154,1.156802466127966
0.3979474153846154,1.149432391066697
0.3979476653846154,1.156802466127614
0.3979479153846154,1.149432391066274
0.3979481653846154,1.149432391066442
0.3979484153846154,1.153117428597016
0.3979486653846154,1.153117428597016
0.3979489153846154,1.156802466127681
0.3979491653846154,1.153117428597016
0.3979494153846154,1.153117428597016
0.3979496653846154,1.156802466127772
0.3979499153846154,1.153117428597102
0.3979501653846154,1.149432391066432
0.3979504153846154,1.153117428597142
0.3979506653846154,1.156802466127812
0.3979509153846154,1.156802466127989
0.3979511653846154,1.156802466127954
0.3979514153846154,1.153117428597284
0.3979516653846154,1.127322165878233
0.3979519153846154,1.097841865632874
0.3979521653846154,1.08678675304058
0.3979524153846154,1.086786753039499
0.3979526653846154,1.086786753039499
0.3979529153846154,1.07941667797792
0.3979531653846154,1.083101715508526
0.3979534153846154,1.083101715508526
0.3979536653846154,1.083101715508802
0.3979539153846154,1.086786753039472
0.3979541653846154,1.083101715508856
0.3979544153846154,1.086786753039314
0.3979546653846154,1.083101715508645
0.3979549153846154,1.086786753039499
0.3979551653846154,1.086786753039405
0.3979554153846154,1.083101715508735
0.3979556653846154,1.083101715508526
0.3979559153846154,1.083101715508526
0.3979561653846154,1.083101715508526
0.3979564153846154,1.08310171550874
0.3979566653846154,1.08678675303941
0.3979569153846154,1.09047179057008
0.3979571653846154,1.090471790570348
0.3979574153846154,1.086786753039678
0.3979576653846154,1.086786753039499
0.3979579153846154,1.086786753039499
0.3979581653846154,1.086786753039499
0.3979584153846154,1.083101715509015
0.3979586653846154,1.090471790570355
0.3979589153846154,1.083101715509249
0.3979591653846154,1.075731640446884
0.3979594153846154,1.083101715508224
0.3979596653846154,1.079416677977552
0.3979599153846154,1.079416677977552
0.3979601653846154,1.079416677977552
0.3979604153846154,1.079416677977826
0.3979606653846154,1.083101715508495
0.3979609153846154,1.083101715508526
0.3979611653846154,1.083101715508526
0.3979614153846154,1.083101715508526
0.3979616653846154,1.083101715508526
0.3979619153846154,1.08310171550744
0.3979621653846154,1.038881265139401
0.3979624153846154,1.027826152543321
0.3979626653846154,1.020456077481981
0.3979629153846154,1.016771039951311
0.3979631653846154,1.013086002419824
0.3979634153846154,1.009400964889154
0.3979636653846154,1.009400964889062
0.3979639153846154,1.013086002419914
0.3979641653846154,1.009400964889244
0.3979644153846154,1.009400964889062
0.3979646653846154,1.009400964889062
0.3979649153846154,1.009400964889062
0.3979651653846154,1.013086002420035
0.3979654153846154,1.013086002420035
0.3979656653846154,1.016771039950643
0.3979659153846154,1.013086002420184
0.3979661653846154,1.016771039950856
0.3979664153846154,1.013086002420035
0.3979666653846154,1.013086002419976
0.3979669153846154,1.009400964889306
0.3979671653846154,1.005715927358088
0.3979674153846154,1.005715927358088
0.3979676653846154,1.009400964888727
0.3979679153846154,1.002030889827474
0.3979681653846154,1.009400964888814
0.3979684153846154,1.009400964889846
0.3979686653846154,1.016771039950831
0.3979689153846154,1.009400964889491
0.3979691653846154,1.005715927358688
0.3979694153846154,1.013086002420028
0.3979696653846154,1.013086002420035
0.3979699153846154,1.009400964889062
0.3979701653846154,1.009400964889062
0.3979704153846154,1.013086002419638
0.3979706653846154,1.009400964889179
0.3979709153846154,1.013086002419849
0.3979711653846154,1.016771039951008
0.3979714153846154,1.016771039951008
0.3979716653846154,1.016771039951008
0.3979719153846154,1.020456077481743
0.3979721653846154,1.016771039951073
0.3979724153846154,1.013086002420403
0.3979726653846154,0.9651805145169409
0.3979729153846154,0.9541254019249312
0.3979731653846154,0.9541254019237465
0.3979734153846154,0.9467553268625173
0.3979736653846154,0.9467553268625173
0.3979739153846154,0.9430702893315441
0.3979741653846154,0.9430702893315441
0.3979744153846154,0.9467553268621788
0.3979746653846154,0.9467553268623413
0.3979749153846154,0.9430702893316715
0.3979751653846154,0.9467553268625173
0.3979754153846154,0.9467553268626028
0.3979756653846154,0.9504403643932727
0.3979759153846154,0.9541254019241671
0.3979761653846154,0.9504403643934956
0.3979764153846154,0.9467553268628256
0.3979766653846154,0.9467553268627235
0.3979769153846154,0.9504403643933934
0.3979771653846154,0.9467553268629177
0.3979774153846154,0.9430702893315441
0.3979776653846154,0.9430702893315441
0.3979779153846154,0.9393852518008977
0.3979781653846154,0.9430702893315676
0.3979784153846154,0.9467553268622374
0.3979786653846154,0.9504403643937268
0.3979789153846154,0.9541254019243967
0.3979791653846154,0.9541254019244637
0.3979794153846154,0.9578104394550045
0.3979796653846154,0.9467553268629949
0.3979799153846154,0.9467553268632312
0.3979801653846154,0.9541254019243565
0.3979804153846154,0.9467553268630167
0.3979806653846154,0.9467553268625173
0.3979809153846154,0.9467553268625173
0.3979811653846154,0.9467553268625173
0.3979814153846154,0.9430702893317184
0.3979816653846154,0.9467553268623883
0.3979819153846154,0.9467553268629028
0.3979821653846154,0.9504403643934906
0.3979824153846154,0.9504403643934906
0.3979826653846154,0.9541254019226941
0.3979829153846154,0.9320151767386748
0.3979831653846154,0.8951648014320095
0.3979834153846154,0.8841096888357702
0.3979836653846154,0.8804246513051004
0.3979839153846154,0.8804246513049998
0.3979841653846154,0.8804246513049998
0.3979844153846154,0.8804246513049998
0.3979846653846154,0.8730545762433768
0.3979849153846154,0.8767396137740266
0.3979851653846154,0.8767396137740266
0.3979854153846154,0.8767396137742596
0.3979856653846154,0.8804246513049294
0.3979859153846154,0.8767396137744004
0.3979861653846154,0.880424651304859
0.3979864153846154,0.8767396137741875
0.3979866653846154,0.8767396137740266
0.3979869153846154,0.8767396137740266
0.3979871653846154,0.8767396137740266
0.3979874153846154,0.8841096888357098
0.3979876653846154,0.88042465130504
0.3979879153846154,0.8841096888356295
0.3979881653846154,0.8804246513049998
0.3979884153846154,0.8804246513049998
0.3979886653846154,0.880424651304616
0.3979889153846154,0.8767396137741071
0.3979891653846154,0.880424651304777
0.3979894153846154,0.8767396137740266
0.3979896653846154,0.8767396137740266
0.3979899153846154,0.8767396137740266
0.3979901653846154,0.8730545762428523
0.3979904153846154,0.8693695387121825
0.3979906653846154,0.8693695387120802
0.3979909153846154,0.8730545762430534
0.3979911653846154,0.8730545762430534
0.3979914153846154,0.8730545762430534
0.3979916653846154,0.8730545762430718
0.3979919153846154,0.8767396137737418
0.3979921653846154,0.8767396137737971
0.3979924153846154,0.8730545762431271
0.3979926653846154,0.8730545762430534
0.3979929153846154,0.8730545762431925
0.3979931653846154,0.8767396137738624
0.3979934153846154,0.8325191634009472
0.3979936653846154,0.8177790132784085
0.3979939153846154,0.814093975747737
0.3979941653846154,0.8140939757472225
0.3979944153846154,0.8104089382165526
0.3979946653846154,0.8104089382165091
0.3979949153846154,0.8177790132782879
0.3979951653846154,0.8140939757476164
0.3979954153846154,0.8140939757474823
0.3979956653846154,0.8140939757473281
0.3979959153846154,0.8067239006859883
0.3979961653846154,0.8140939757469059
0.3979964153846154,0.8067239006855627
0.3979966653846154,0.8104089382161923
0.3979969153846154,0.8104089382165091
0.3979971653846154,0.8104089382165091
0.3979974153846154,0.8067239006855359
0.3979976653846154,0.8067239006856431
0.3979979153846154,0.810408938216313
0.3979981653846154,0.8067239006855359
0.3979984153846154,0.8067239006855359
0.3979986653846154,0.8067239006855359
0.3979989153846154,0.8140939757474823
0.3979991653846154,0.8140939757474823
0.3979994153846154,0.8140939757474823
0.3979996653846154,0.8104089382165091
0.3979999153846154,0.8104089382165091
0.3980001653846154,0.8067239006858845
0.3980004153846154,0.8104089382164638
0.3980006653846154,0.8067239006857939
0.3980009153846154,0.8030388631550756
0.3980011653846154,0.8104089382164152
0.3980014153846154,0.8067239006858862
0.3980016653846154,0.8030388631548946
0.3980019153846154,0.8104089382162343
0.3980021653846154,0.8067239006855359
0.3980024153846154,0.8067239006856096
0.3980026653846154,0.8104089382162795
0.3980029153846154,0.8104089382162225
0.3980031653846154,0.8067239006855527
0.3980034153846154,0.8067239006855359
0.3980036653846154,0.8030388631522301
0.3980039153846154,0.7588184127841914
0.3980041653846154,0.7551333752510967
0.3980044153846154,0.7477633001899647
0.3980046653846154,0.7477633001899647
0.3980049153846154,0.7477633001899647
0.3980051653846154,0.7477633001899782
0.3980054153846154,0.7514483377206481
0.3980056653846154,0.7514483377207134
0.3980059153846154,0.7477633001900434
0.3980061653846154,0.7477633001899647
0.3980064153846154,0.7477633001899647
0.3980066653846154,0.7477633001899647
0.3980069153846154,0.7477633001896196
0.3980071653846154,0.7440782626589916
0.3980074153846154,0.7440782626589916
0.3980076653846154,0.7477633001899647
0.3980079153846154,0.7477633001899647
0.3980081653846154,0.7440782626593435
0.3980084153846154,0.7514483377207755
0.3980086653846154,0.7477633001901055
0.3980089153846154,0.7403932251283938
0.3980091653846154,0.7440782626589916
0.3980094153846154,0.7440782626589916
0.3980096653846154,0.7551333752513447
0.3980099153846154,0.7477633001900049
0.3980101653846154,0.744078262659315
0.3980104153846154,0.7440782626589916
0.3980106653846154,0.7440782626589916
0.3980109153846154,0.7403932251280184
0.3980111653846154,0.7403932251280184
0.3980114153846154,0.7403932251280184
0.3980116653846154,0.7367081875970451
0.3980119153846154,0.7367081875970652
0.3980121653846154,0.744078262658405
0.3980124153846154,0.7440782626592127
0.3980126653846154,0.7477633001898826
0.3980129153846154,0.7514483377205525
0.3980131653846154,0.7477633001899647
0.3980134153846154,0.7477633001899647
0.3980136653846154,0.7477633001899647
0.3980139153846154,0.7477633001897335
0.3980141653846154,0.7256530750057041
0.3980144153846154,0.6924877372246128
0.3980146653846154,0.6814326246326031
0.3980149153846154,0.6814326246324472
0.3980151653846154,0.67406254957066
0.3980154153846154,0.6777475871013316
0.3980156653846154,0.6814326246328193
0.3980159153846154,0.6851176621634204
0.3980161653846154,0.6851176621634204
0.3980164153846154,0.6777475871014741
0.3980166653846154,0.6777475871014741
0.3980169153846154,0.6814326246321222
0.3980171653846154,0.685117662163231
0.3980174153846154,0.6814326246325612
0.3980176653846154,0.6814326246328495
0.3980179153846154,0.6851176621635193
0.3980181653846154,0.6888026996941893
0.3980184153846154,0.6814326246324472
0.3980186653846154,0.6814326246324539
0.3980189153846154,0.6851176621631238
0.3980191653846154,0.6851176621632009
0.3980194153846154,0.6814326246325311
0.3980196653846154,0.6814326246324472
0.3980199153846154,0.6740625495706282
0.3980201653846154,0.6777475871012981
0.3980204153846154,0.6777475871014741
0.3980206653846154,0.6777475871014741
0.3980209153846154,0.6777475871014741
0.3980211653846154,0.6777475871017221
0.3980214153846154,0.681432624632392
0.3980216653846154,0.6814326246324472
0.3980219153846154,0.6814326246327623
0.3980221653846154,0.6888026996941021
0.3980224153846154,0.6851176621634204
0.3980226653846154,0.685117662163355
0.3980229153846154,0.6814326246326852
0.3980231653846154,0.6851176621631422
0.3980234153846154,0.6814326246324723
0.3980236653846154,0.685117662163092
0.3980239153846154,0.6814326246324472
0.3980241653846154,0.6814326246324472
0.3980244153846154,0.6814326246288578
0.3980246653846154,0.6482672868533065
0.3980249153846154,0.6335271367306269
0.3980251653846154,0.6224720241362628
0.3980254153846154,0.6151019490749298
0.3980256653846154,0.6151019490749298
0.3980259153846154,0.6187869866056868
0.3980261653846154,0.6151019490750169
0.3980264153846154,0.6187869866055125
0.3980266653846154,0.6187869866059029
0.3980269153846154,0.6187869866059029
0.3980271653846154,0.6187869866059029
0.3980274153846154,0.6187869866059365
